[
    {
        "id": "41f61d2.fbe09e4",
        "type": "tab",
        "label": "flow1",
        "disabled": false,
        "info": "main App connection"
    },
    {
        "id": "52a903f3.ad56fc",
        "type": "ui_tab",
        "z": "41f61d2.fbe09e4",
        "name": "Home",
        "icon": "dashboard"
    },
    {
        "id": "30e652f.d9de3ae",
        "type": "ui_group",
        "z": "41f61d2.fbe09e4",
        "name": "Panel 2",
        "tab": "52a903f3.ad56fc",
        "order": 5,
        "disp": true,
        "width": "6"
    },
    {
        "id": "a8ecb9.c60f4348",
        "type": "ui_group",
        "z": "41f61d2.fbe09e4",
        "name": "Introduction",
        "tab": "52a903f3.ad56fc",
        "order": 1,
        "disp": false,
        "width": "4",
        "collapse": false
    },
    {
        "id": "bbdf3e02.e8fee",
        "type": "ui_group",
        "z": "41f61d2.fbe09e4",
        "name": "Panel 1",
        "tab": "52a903f3.ad56fc",
        "order": 2,
        "disp": true,
        "width": "6"
    },
    {
        "id": "d9ba26fa.6d2b18",
        "type": "ui_base",
        "theme": {
            "name": "theme-light",
            "lightTheme": {
                "default": "#0094CE",
                "baseColor": "#8e0d17",
                "baseFont": "Gill Sans,Geneva,sans-serif",
                "edited": true,
                "reset": false
            },
            "darkTheme": {
                "default": "#097479",
                "baseColor": "#097479",
                "baseFont": "Helvetica Neue",
                "edited": false
            },
            "customTheme": {
                "name": "Untitled Theme 1",
                "default": "#4B7930",
                "baseColor": "#4B7930",
                "baseFont": "Helvetica Neue"
            },
            "themeState": {
                "base-color": {
                    "default": "#0094CE",
                    "value": "#d80005",
                    "edited": true
                },
                "page-titlebar-backgroundColor": {
                    "value": "#8e0d17",
                    "edited": false
                },
                "page-backgroundColor": {
                    "value": "#fafafa",
                    "edited": false
                },
                "page-sidebar-backgroundColor": {
                    "value": "#000000",
                    "edited": false
                },
                "group-textColor": {
                    "value": "#d41322",
                    "edited": false
                },
                "group-borderColor": {
                    "value": "#ffffff",
                    "edited": false
                },
                "group-backgroundColor": {
                    "value": "#ffffff",
                    "edited": false
                },
                "widget-textColor": {
                    "value": "#111111",
                    "edited": false
                },
                "widget-backgroundColor": {
                    "value": "#8e0d17",
                    "edited": false
                },
                "widget-borderColor": {
                    "value": "#ffffff",
                    "edited": false
                },
                "base-font": {
                    "value": "Gill Sans,Geneva,sans-serif"
                }
            }
        },
        "site": {
            "name": "PWA SYNC Dashboard",
            "hideToolbar": "false",
            "allowSwipe": "false",
            "dateFormat": "DD/MM/YYYY",
            "sizes": {
                "sx": 48,
                "sy": 48,
                "gx": 6,
                "gy": 6,
                "cx": 6,
                "cy": 6,
                "px": 0,
                "py": 0
            }
        }
    },
    {
        "id": "87356b62.92e3d8",
        "type": "ui_group",
        "z": "",
        "name": "Text to Speech",
        "tab": "52a903f3.ad56fc",
        "order": 3,
        "disp": true,
        "width": "6"
    },
    {
        "id": "c75ad4f0.0cede8",
        "type": "ui_group",
        "z": "",
        "name": "Map",
        "tab": "52a903f3.ad56fc",
        "order": 4,
        "disp": true,
        "width": "6"
    },
    {
        "id": "b5a05b44.cd86d8",
        "type": "MSSQL-CN",
        "z": "",
        "name": "MSSQL_CON2",
        "server": "192.168.2.165",
        "encyption": true,
        "database": "PWA_CHONBURI"
    },
    {
        "id": "2f093d73.5e5ea2",
        "type": "MySQLdatabase",
        "z": "",
        "host": "127.0.0.1",
        "port": "3306",
        "db": "PWA_DB2",
        "tz": ""
    },
    {
        "id": "6dbf2ea7.d4758",
        "type": "mongodb",
        "z": "",
        "hostname": "127.0.0.1",
        "port": "27017",
        "db": "PWA",
        "name": "Local"
    },
    {
        "id": "ecfddf79.f53b2",
        "type": "MSSQL-CN",
        "z": "",
        "name": "MSSQL_CON1",
        "server": "192.168.2.165",
        "encyption": false,
        "database": "PWA_CHONBURI"
    },
    {
        "id": "81c19238.90c12",
        "type": "MySQLdatabase",
        "z": "",
        "host": "127.0.0.1",
        "port": "3306",
        "db": "pwa_dev",
        "tz": ""
    },
    {
        "id": "bbe0b774.673cf8",
        "type": "postgresdb",
        "z": "",
        "hostname": "127.0.0.1",
        "port": "5432",
        "db": "postgres",
        "ssl": false
    },
    {
        "id": "bbb89e44.f3bfa",
        "type": "postgresdb",
        "z": "",
        "hostname": "localhost",
        "port": "5432",
        "db": "PWA",
        "ssl": false
    },
    {
        "id": "6557c2f6.c7f43c",
        "type": "mqtt-broker",
        "z": "",
        "name": "cli1",
        "broker": "iotdma.com",
        "port": "1883",
        "clientid": "",
        "usetls": false,
        "compatmode": false,
        "keepalive": "60",
        "cleansession": true,
        "birthTopic": "",
        "birthQos": "0",
        "birthPayload": "",
        "closeTopic": "",
        "closeQos": "0",
        "closePayload": "",
        "willTopic": "",
        "willQos": "0",
        "willPayload": ""
    },
    {
        "id": "1ef1a843.5ab498",
        "type": "influxdb",
        "z": "",
        "hostname": "127.0.0.1",
        "port": "8086",
        "protocol": "http",
        "database": "pwa",
        "name": "influx_con",
        "usetls": false,
        "tls": ""
    },
    {
        "id": "c753fa1.0d42d08",
        "type": "MSSQL",
        "z": "41f61d2.fbe09e4",
        "mssqlCN": "ecfddf79.f53b2",
        "name": "MSSQL_DB1",
        "query": "",
        "outField": "payload",
        "x": 600,
        "y": 260,
        "wires": [
            [
                "937d0068.0fdce",
                "8011e9f7.6fa478",
                "2fe27e6a.e4d522"
            ]
        ]
    },
    {
        "id": "91db9793.489038",
        "type": "inject",
        "z": "41f61d2.fbe09e4",
        "name": "tick1",
        "topic": "",
        "payload": "",
        "payloadType": "date",
        "repeat": "5",
        "crontab": "",
        "once": false,
        "onceDelay": "0.5",
        "x": 110,
        "y": 200,
        "wires": [
            [
                "a103f42c.3e7088"
            ]
        ]
    },
    {
        "id": "1352670.ff6ba99",
        "type": "debug",
        "z": "41f61d2.fbe09e4",
        "name": "",
        "active": true,
        "tosidebar": true,
        "console": false,
        "tostatus": false,
        "complete": "true",
        "targetType": "full",
        "x": 1250,
        "y": 440,
        "wires": []
    },
    {
        "id": "9ff729a3.974658",
        "type": "MSSQL",
        "z": "41f61d2.fbe09e4",
        "mssqlCN": "b5a05b44.cd86d8",
        "name": "MSSQL_DB2",
        "query": "",
        "outField": "payload",
        "x": 600,
        "y": 320,
        "wires": [
            [
                "8011e9f7.6fa478",
                "2fe27e6a.e4d522",
                "937d0068.0fdce"
            ]
        ]
    },
    {
        "id": "9ba6407.df16cc",
        "type": "mysql",
        "z": "41f61d2.fbe09e4",
        "d": true,
        "mydb": "81c19238.90c12",
        "name": "MYSQL_DB1",
        "x": 600,
        "y": 400,
        "wires": [
            [
                "8011e9f7.6fa478",
                "2fe27e6a.e4d522"
            ]
        ]
    },
    {
        "id": "6b5a9241.0ebcec",
        "type": "mysql",
        "z": "41f61d2.fbe09e4",
        "d": true,
        "mydb": "81c19238.90c12",
        "name": "MYSQL_DB2",
        "x": 600,
        "y": 460,
        "wires": [
            [
                "8011e9f7.6fa478",
                "2fe27e6a.e4d522"
            ]
        ]
    },
    {
        "id": "96417f5d.21051",
        "type": "postgres",
        "z": "41f61d2.fbe09e4",
        "postgresdb": "bbb89e44.f3bfa",
        "name": "PG_DB1",
        "output": true,
        "outputs": 1,
        "x": 580,
        "y": 560,
        "wires": [
            []
        ]
    },
    {
        "id": "79a182f1.6734dc",
        "type": "debug",
        "z": "41f61d2.fbe09e4",
        "name": "",
        "active": true,
        "tosidebar": true,
        "console": false,
        "tostatus": false,
        "complete": "false",
        "x": 1710,
        "y": 1260,
        "wires": []
    },
    {
        "id": "599dd9ad.c9f968",
        "type": "mqtt out",
        "z": "41f61d2.fbe09e4",
        "name": "",
        "topic": "",
        "qos": "0",
        "retain": "false",
        "broker": "6557c2f6.c7f43c",
        "x": 2030,
        "y": 440,
        "wires": []
    },
    {
        "id": "1dad4b0f.7911c5",
        "type": "influxdb out",
        "z": "41f61d2.fbe09e4",
        "influxdb": "1ef1a843.5ab498",
        "name": "",
        "measurement": "",
        "precision": "",
        "retentionPolicy": "",
        "x": 1180,
        "y": 260,
        "wires": []
    },
    {
        "id": "8495bdb7.2b918",
        "type": "http request",
        "z": "41f61d2.fbe09e4",
        "name": "",
        "method": "POST",
        "ret": "txt",
        "paytoqs": false,
        "url": "www.iotdma.info/api",
        "tls": "",
        "persist": false,
        "proxy": "",
        "authType": "",
        "x": 2060,
        "y": 540,
        "wires": [
            []
        ]
    },
    {
        "id": "cd921309.24c2c",
        "type": "file in",
        "z": "41f61d2.fbe09e4",
        "name": "",
        "filename": "",
        "format": "utf8",
        "chunk": false,
        "sendError": false,
        "encoding": "none",
        "x": 1390,
        "y": 1060,
        "wires": [
            [
                "1b60de10.9cde22"
            ]
        ]
    },
    {
        "id": "68a23bf0.355154",
        "type": "influxdb in",
        "z": "41f61d2.fbe09e4",
        "influxdb": "1ef1a843.5ab498",
        "name": "",
        "query": "",
        "rawOutput": true,
        "precision": "",
        "retentionPolicy": "",
        "x": 2040,
        "y": 660,
        "wires": [
            []
        ]
    },
    {
        "id": "5b039210.0018bc",
        "type": "inject",
        "z": "41f61d2.fbe09e4",
        "name": "",
        "topic": "",
        "payload": "",
        "payloadType": "date",
        "repeat": "",
        "crontab": "",
        "once": true,
        "onceDelay": "0.5",
        "x": 1030,
        "y": 1060,
        "wires": [
            [
                "4f3bc19b.c925a",
                "2e51fbb1.742304",
                "cbb3bac5.f1c9b8"
            ]
        ]
    },
    {
        "id": "4f3bc19b.c925a",
        "type": "function",
        "z": "41f61d2.fbe09e4",
        "name": "config/info.json",
        "func": "var conf_dir = global.get('conf_dir')\n\nmsg.filename = conf_dir+\"/info.json\"\nreturn msg;",
        "outputs": 1,
        "noerr": 0,
        "x": 1220,
        "y": 1060,
        "wires": [
            [
                "cd921309.24c2c"
            ]
        ]
    },
    {
        "id": "1b60de10.9cde22",
        "type": "json",
        "z": "41f61d2.fbe09e4",
        "name": "",
        "property": "payload",
        "action": "",
        "pretty": false,
        "x": 1530,
        "y": 1060,
        "wires": [
            [
                "79a182f1.6734dc",
                "91ae0ad5.fb6d88"
            ]
        ]
    },
    {
        "id": "1e92bd59.6a3cd3",
        "type": "http in",
        "z": "41f61d2.fbe09e4",
        "name": "",
        "url": "/g_info",
        "method": "get",
        "upload": false,
        "swaggerDoc": "",
        "x": 340,
        "y": 1220,
        "wires": [
            [
                "dbaeee13.beab8"
            ]
        ]
    },
    {
        "id": "925c373a.1846e8",
        "type": "http response",
        "z": "41f61d2.fbe09e4",
        "name": "",
        "statusCode": "",
        "headers": {},
        "x": 690,
        "y": 1220,
        "wires": []
    },
    {
        "id": "dbaeee13.beab8",
        "type": "function",
        "z": "41f61d2.fbe09e4",
        "name": "",
        "func": "msg.payload = global.get('g_info')\nreturn msg;",
        "outputs": 1,
        "noerr": 0,
        "x": 530,
        "y": 1220,
        "wires": [
            [
                "925c373a.1846e8"
            ]
        ]
    },
    {
        "id": "2e51fbb1.742304",
        "type": "function",
        "z": "41f61d2.fbe09e4",
        "name": "config/query.json",
        "func": "\nvar conf_dir = global.get('conf_dir')\nmsg.filename = conf_dir+\"/query.json\"\nreturn msg;",
        "outputs": 1,
        "noerr": 0,
        "x": 1210,
        "y": 1120,
        "wires": [
            [
                "af40dd7.a029f2"
            ]
        ]
    },
    {
        "id": "af40dd7.a029f2",
        "type": "file in",
        "z": "41f61d2.fbe09e4",
        "name": "",
        "filename": "",
        "format": "utf8",
        "chunk": false,
        "sendError": false,
        "encoding": "none",
        "x": 1390,
        "y": 1120,
        "wires": [
            [
                "8a596276.e0a43"
            ]
        ]
    },
    {
        "id": "8a596276.e0a43",
        "type": "json",
        "z": "41f61d2.fbe09e4",
        "name": "",
        "property": "payload",
        "action": "",
        "pretty": false,
        "x": 1530,
        "y": 1120,
        "wires": [
            [
                "79a182f1.6734dc",
                "d1b5a11b.3cd72"
            ]
        ]
    },
    {
        "id": "86dd889c.2df7a8",
        "type": "http in",
        "z": "41f61d2.fbe09e4",
        "name": "",
        "url": "/g_query",
        "method": "get",
        "upload": false,
        "swaggerDoc": "",
        "x": 350,
        "y": 1380,
        "wires": [
            [
                "e64108dd.7816f8"
            ]
        ]
    },
    {
        "id": "1d2c5c97.cf4443",
        "type": "http response",
        "z": "41f61d2.fbe09e4",
        "name": "",
        "statusCode": "",
        "headers": {},
        "x": 700,
        "y": 1380,
        "wires": []
    },
    {
        "id": "e64108dd.7816f8",
        "type": "function",
        "z": "41f61d2.fbe09e4",
        "name": "",
        "func": "msg.payload = global.get('g_query')\nreturn msg;",
        "outputs": 1,
        "noerr": 0,
        "x": 540,
        "y": 1380,
        "wires": [
            [
                "1d2c5c97.cf4443"
            ]
        ]
    },
    {
        "id": "ae74624e.c3022",
        "type": "inject",
        "z": "41f61d2.fbe09e4",
        "name": "",
        "topic": "",
        "payload": "",
        "payloadType": "date",
        "repeat": "",
        "crontab": "",
        "once": true,
        "onceDelay": 0.1,
        "x": 1550,
        "y": 80,
        "wires": [
            [
                "fc702760.e082a8"
            ]
        ]
    },
    {
        "id": "fc702760.e082a8",
        "type": "function",
        "z": "41f61d2.fbe09e4",
        "name": "initial",
        "func": "\nlet dbcon = {\n    \"mssql1\":false,\n    \"mssql2\":false,\n    \"mysql1\":false,\n    \"mysql2\":false,\n    \"pgsql1\":false,\n    \"pgsql2\":false,\n    \"influx\":false\n}\n\nglobal.set('dbcon',dbcon);\nglobal.set('q_count',0);\n\nglobal.set('map_db1',{});\nglobal.set('tmp_db1',{});\n\nlet configDir = 'C:/pwa_sync_conf';\nglobal.set('conf_dir',configDir)\nlet os = global.get('os')\nmsg.payload = os.homedir();\nreturn msg;",
        "outputs": 1,
        "noerr": 0,
        "x": 1730,
        "y": 60,
        "wires": [
            [
                "ddde1cf6.7a6af"
            ]
        ]
    },
    {
        "id": "10753db.dd10cc2",
        "type": "http in",
        "z": "41f61d2.fbe09e4",
        "name": "",
        "url": "/dbcon",
        "method": "get",
        "upload": false,
        "swaggerDoc": "",
        "x": 370,
        "y": 1620,
        "wires": [
            [
                "42a2b300.f9df5c",
                "2b7d5b55.9d5384"
            ]
        ]
    },
    {
        "id": "c3bbc0b9.11b09",
        "type": "http response",
        "z": "41f61d2.fbe09e4",
        "name": "",
        "statusCode": "",
        "headers": {},
        "x": 720,
        "y": 1620,
        "wires": []
    },
    {
        "id": "42a2b300.f9df5c",
        "type": "debug",
        "z": "41f61d2.fbe09e4",
        "name": "",
        "active": true,
        "tosidebar": true,
        "console": false,
        "tostatus": false,
        "complete": "false",
        "x": 700,
        "y": 1680,
        "wires": []
    },
    {
        "id": "2b7d5b55.9d5384",
        "type": "function",
        "z": "41f61d2.fbe09e4",
        "name": "",
        "func": "msg.payload = global.get('dbcon')\nreturn msg;",
        "outputs": 1,
        "noerr": 0,
        "x": 560,
        "y": 1620,
        "wires": [
            [
                "c3bbc0b9.11b09"
            ]
        ]
    },
    {
        "id": "937d0068.0fdce",
        "type": "function",
        "z": "41f61d2.fbe09e4",
        "name": "MSSQL_DB1_PROCESS",
        "func": "var dbcon = global.get('dbcon')\nvar qry_tmp = global.get('qry_tmp')\nvar q_count = global.get('q_count');\nvar g_query = global.get('g_query');\n\n\nmsg1 = {payload:\"\"}\nmsg2 = {payload:\"\"}\nmsg3 = {payload:\"\"}\n\nfunction nextCount(){\n    q_count = q_count+1;\n    if(q_count >= g_query.length){\n        q_count = 0;\n    }\n    global.set('q_count',q_count);\n\n}\n\n\nfunction removeNull(pc_json){\n     Object.keys(pc_json).forEach(k =>\n        (!pc_json[k] && pc_json[k] !== undefined) && delete pc_json[k]\n      );\n      pc_json.DataDateTime = String(pc_json.DataDateTime.toISOString())\n      \n      return pc_json;\n}\n\n\nif(msg.error === undefined ){\n    dbcon.mssql1 = true;\n    var map1 = global.get('map_db')    \n    \n    // Process Raw Save Influx\n    var pc_json = removeNull(msg.payload[0]);\n    msg2.payload = pc_json;\n    msg2.precision ='s'\n    msg2.measurement= map1.logtable;\n    \n    \n    //Check Duplicate Last Query\n    msg1.payload = qry_tmp[q_count]\n    msg3.payload = pc_json\n    \n    \n    if(qry_tmp[q_count].DataDateTime !== pc_json.DataDateTime){\n        \n        qry_tmp[q_count]=pc_json\n        global.set('qry_tmp',qry_tmp)\n        nextCount();\n        return[msg1,msg2,msg3]  \n        \n    }else{\n        nextCount();\n        return\n    }\n    \n}else{\n    dbcon.mssql1 = false;\n    nextCount();\n\n}\nglobal.set('dbcon',dbcon)\n\n\n\n\n",
        "outputs": 3,
        "noerr": 0,
        "x": 910,
        "y": 260,
        "wires": [
            [
                "edcc3920.371cf8"
            ],
            [
                "1352670.ff6ba99",
                "1dad4b0f.7911c5"
            ],
            [
                "fede98fb.46ed38"
            ]
        ]
    },
    {
        "id": "ddde1cf6.7a6af",
        "type": "debug",
        "z": "41f61d2.fbe09e4",
        "name": "",
        "active": true,
        "tosidebar": false,
        "console": false,
        "tostatus": false,
        "complete": "true",
        "targetType": "full",
        "x": 2010,
        "y": 60,
        "wires": []
    },
    {
        "id": "cbb3bac5.f1c9b8",
        "type": "function",
        "z": "41f61d2.fbe09e4",
        "name": "config/mapping.json",
        "func": "\nvar conf_dir = global.get('conf_dir')\nmsg.filename = conf_dir+\"/mapping.json\"\nreturn msg;",
        "outputs": 1,
        "noerr": 0,
        "x": 1200,
        "y": 1180,
        "wires": [
            [
                "e468b4f.9d6bd48"
            ]
        ]
    },
    {
        "id": "e468b4f.9d6bd48",
        "type": "file in",
        "z": "41f61d2.fbe09e4",
        "name": "",
        "filename": "",
        "format": "utf8",
        "chunk": false,
        "sendError": false,
        "encoding": "none",
        "x": 1390,
        "y": 1180,
        "wires": [
            [
                "4a67791f.d9ed58"
            ]
        ]
    },
    {
        "id": "4a67791f.d9ed58",
        "type": "json",
        "z": "41f61d2.fbe09e4",
        "name": "",
        "property": "payload",
        "action": "",
        "pretty": false,
        "x": 1530,
        "y": 1180,
        "wires": [
            [
                "79a182f1.6734dc",
                "8efd929c.63cd2"
            ]
        ]
    },
    {
        "id": "c1a37dd.3720c8",
        "type": "function",
        "z": "41f61d2.fbe09e4",
        "name": "",
        "func": "msg.payload = \"SELECT TOP(1) * from dbo.DATATBL_DPB   WHERE Device LIKE '%_BS_%' ORDER BY DataDateTime DESC;\"\n\n\n\nreturn msg;",
        "outputs": 1,
        "noerr": 0,
        "x": 610,
        "y": 80,
        "wires": [
            [
                "c753fa1.0d42d08"
            ]
        ]
    },
    {
        "id": "d1b5a11b.3cd72",
        "type": "function",
        "z": "41f61d2.fbe09e4",
        "name": "",
        "func": "\nvar len = msg.payload.length\n\nvar qry_tmp =[]\nfor(var i=0;i<len;i++){\n    qry_tmp.push({timestamp:\"\"})    \n}\n\n\n\nglobal.set('g_query',msg.payload)\nglobal.set('qry_tmp',qry_tmp)",
        "outputs": 1,
        "noerr": 0,
        "x": 1690,
        "y": 1120,
        "wires": [
            []
        ]
    },
    {
        "id": "91ae0ad5.fb6d88",
        "type": "function",
        "z": "41f61d2.fbe09e4",
        "name": "",
        "func": "\nglobal.set('g_info',msg.payload)\n",
        "outputs": 1,
        "noerr": 0,
        "x": 1690,
        "y": 1060,
        "wires": [
            []
        ]
    },
    {
        "id": "8efd929c.63cd2",
        "type": "function",
        "z": "41f61d2.fbe09e4",
        "name": "",
        "func": "\nglobal.set('g_mapping',msg.payload)\n",
        "outputs": 1,
        "noerr": 0,
        "x": 1690,
        "y": 1180,
        "wires": [
            []
        ]
    },
    {
        "id": "11a4db45.30d905",
        "type": "http in",
        "z": "41f61d2.fbe09e4",
        "name": "",
        "url": "/MSSQL_DB1",
        "method": "post",
        "upload": false,
        "swaggerDoc": "",
        "x": 310,
        "y": 60,
        "wires": [
            [
                "c753fa1.0d42d08"
            ]
        ]
    },
    {
        "id": "8011e9f7.6fa478",
        "type": "http response",
        "z": "41f61d2.fbe09e4",
        "name": "",
        "statusCode": "",
        "headers": {},
        "x": 890,
        "y": 20,
        "wires": []
    },
    {
        "id": "37290c2d.b27754",
        "type": "http in",
        "z": "41f61d2.fbe09e4",
        "name": "",
        "url": "/MSSQL_DB2",
        "method": "post",
        "upload": false,
        "swaggerDoc": "",
        "x": 310,
        "y": 100,
        "wires": [
            [
                "9ff729a3.974658"
            ]
        ]
    },
    {
        "id": "cd52ff8a.246be",
        "type": "http in",
        "z": "41f61d2.fbe09e4",
        "name": "",
        "url": "/MYSQL_DB2",
        "method": "post",
        "upload": false,
        "swaggerDoc": "",
        "x": 310,
        "y": 180,
        "wires": [
            [
                "6b5a9241.0ebcec"
            ]
        ]
    },
    {
        "id": "c960aa8a.bd41c8",
        "type": "http in",
        "z": "41f61d2.fbe09e4",
        "name": "",
        "url": "/MYSQL_DB1",
        "method": "post",
        "upload": false,
        "swaggerDoc": "",
        "x": 310,
        "y": 140,
        "wires": [
            [
                "9ba6407.df16cc"
            ]
        ]
    },
    {
        "id": "fcd0f682.5d8788",
        "type": "http in",
        "z": "41f61d2.fbe09e4",
        "name": "",
        "url": "/g_query",
        "method": "post",
        "upload": false,
        "swaggerDoc": "",
        "x": 360,
        "y": 1420,
        "wires": [
            [
                "7c90beb7.87db6"
            ]
        ]
    },
    {
        "id": "6a1f5282.2de04c",
        "type": "file",
        "z": "41f61d2.fbe09e4",
        "name": "",
        "filename": "C:/pwa_sync_conf/query.json",
        "appendNewline": false,
        "createDir": true,
        "overwriteFile": "true",
        "encoding": "none",
        "x": 720,
        "y": 1420,
        "wires": [
            [
                "b864b2c1.b3a0f",
                "2e51fbb1.742304"
            ]
        ]
    },
    {
        "id": "b864b2c1.b3a0f",
        "type": "http response",
        "z": "41f61d2.fbe09e4",
        "name": "",
        "statusCode": "",
        "headers": {},
        "x": 970,
        "y": 1420,
        "wires": []
    },
    {
        "id": "7c90beb7.87db6",
        "type": "json",
        "z": "41f61d2.fbe09e4",
        "name": "",
        "property": "payload",
        "action": "obj",
        "pretty": false,
        "x": 530,
        "y": 1420,
        "wires": [
            [
                "6a1f5282.2de04c"
            ]
        ]
    },
    {
        "id": "71a6a7fa.968e18",
        "type": "http in",
        "z": "41f61d2.fbe09e4",
        "name": "",
        "url": "/g_info",
        "method": "post",
        "upload": false,
        "swaggerDoc": "",
        "x": 350,
        "y": 1260,
        "wires": [
            [
                "d18343aa.d3a82"
            ]
        ]
    },
    {
        "id": "5cfe088d.421c48",
        "type": "file",
        "z": "41f61d2.fbe09e4",
        "name": "",
        "filename": "C:/pwa_sync_conf/info.json",
        "appendNewline": false,
        "createDir": true,
        "overwriteFile": "true",
        "encoding": "none",
        "x": 720,
        "y": 1260,
        "wires": [
            [
                "582fdceb.969a64",
                "4f3bc19b.c925a"
            ]
        ]
    },
    {
        "id": "582fdceb.969a64",
        "type": "http response",
        "z": "41f61d2.fbe09e4",
        "name": "",
        "statusCode": "",
        "headers": {},
        "x": 930,
        "y": 1260,
        "wires": []
    },
    {
        "id": "d18343aa.d3a82",
        "type": "json",
        "z": "41f61d2.fbe09e4",
        "name": "",
        "property": "payload",
        "action": "obj",
        "pretty": false,
        "x": 530,
        "y": 1260,
        "wires": [
            [
                "5cfe088d.421c48"
            ]
        ]
    },
    {
        "id": "a1dbbf41.bec4e",
        "type": "http in",
        "z": "41f61d2.fbe09e4",
        "name": "",
        "url": "/g_mapping",
        "method": "get",
        "upload": false,
        "swaggerDoc": "",
        "x": 360,
        "y": 1500,
        "wires": [
            [
                "9999e897.899178"
            ]
        ]
    },
    {
        "id": "73d3ab7a.0d9d54",
        "type": "http response",
        "z": "41f61d2.fbe09e4",
        "name": "",
        "statusCode": "",
        "headers": {},
        "x": 700,
        "y": 1500,
        "wires": []
    },
    {
        "id": "9999e897.899178",
        "type": "function",
        "z": "41f61d2.fbe09e4",
        "name": "",
        "func": "msg.payload = global.get('g_query')\nreturn msg;",
        "outputs": 1,
        "noerr": 0,
        "x": 540,
        "y": 1500,
        "wires": [
            [
                "73d3ab7a.0d9d54"
            ]
        ]
    },
    {
        "id": "367a1db9.29dc82",
        "type": "http in",
        "z": "41f61d2.fbe09e4",
        "name": "",
        "url": "/g_mapping",
        "method": "post",
        "upload": false,
        "swaggerDoc": "",
        "x": 370,
        "y": 1540,
        "wires": [
            [
                "6944d5e0.f581fc"
            ]
        ]
    },
    {
        "id": "d2a6b46.8668b48",
        "type": "file",
        "z": "41f61d2.fbe09e4",
        "name": "",
        "filename": "C:/pwa_sync_conf/mapping.json",
        "appendNewline": false,
        "createDir": true,
        "overwriteFile": "true",
        "encoding": "none",
        "x": 730,
        "y": 1540,
        "wires": [
            [
                "9441915e.8fb28",
                "cbb3bac5.f1c9b8"
            ]
        ]
    },
    {
        "id": "9441915e.8fb28",
        "type": "http response",
        "z": "41f61d2.fbe09e4",
        "name": "",
        "statusCode": "",
        "headers": {},
        "x": 970,
        "y": 1540,
        "wires": []
    },
    {
        "id": "6944d5e0.f581fc",
        "type": "json",
        "z": "41f61d2.fbe09e4",
        "name": "",
        "property": "payload",
        "action": "obj",
        "pretty": false,
        "x": 530,
        "y": 1540,
        "wires": [
            [
                "d2a6b46.8668b48"
            ]
        ]
    },
    {
        "id": "a103f42c.3e7088",
        "type": "function",
        "z": "41f61d2.fbe09e4",
        "name": "Query Payload",
        "func": "var g_query = global.get('g_query');\nvar q_count = global.get('q_count');\n\nvar tmp = g_query[q_count]\n\nmsg.payload = tmp\n\nreturn msg;",
        "outputs": 1,
        "noerr": 0,
        "x": 140,
        "y": 260,
        "wires": [
            [
                "591496fa.a21e38",
                "c1e0c449.9d72d8"
            ]
        ]
    },
    {
        "id": "591496fa.a21e38",
        "type": "switch",
        "z": "41f61d2.fbe09e4",
        "name": "",
        "property": "payload.dbcon",
        "propertyType": "msg",
        "rules": [
            {
                "t": "eq",
                "v": "MSSQL_DB1",
                "vt": "str"
            },
            {
                "t": "eq",
                "v": "MSSQL_DB2",
                "vt": "str"
            },
            {
                "t": "eq",
                "v": "MSSQL_DB3",
                "vt": "str"
            },
            {
                "t": "eq",
                "v": "MSSQL_DB4",
                "vt": "str"
            }
        ],
        "checkall": "true",
        "repair": false,
        "outputs": 4,
        "x": 270,
        "y": 360,
        "wires": [
            [
                "59d47f34.581fa"
            ],
            [
                "f703c796.c3eea8"
            ],
            [
                "9ba6407.df16cc"
            ],
            [
                "6b5a9241.0ebcec"
            ]
        ]
    },
    {
        "id": "2fe27e6a.e4d522",
        "type": "debug",
        "z": "41f61d2.fbe09e4",
        "name": "",
        "active": true,
        "tosidebar": true,
        "console": false,
        "tostatus": false,
        "complete": "true",
        "targetType": "full",
        "x": 910,
        "y": 380,
        "wires": []
    },
    {
        "id": "c1e0c449.9d72d8",
        "type": "debug",
        "z": "41f61d2.fbe09e4",
        "name": "",
        "active": false,
        "tosidebar": true,
        "console": false,
        "tostatus": false,
        "complete": "true",
        "targetType": "full",
        "x": 350,
        "y": 600,
        "wires": []
    },
    {
        "id": "59d47f34.581fa",
        "type": "function",
        "z": "41f61d2.fbe09e4",
        "name": "MAP1",
        "func": "global.set('map_db',msg.payload)\n\nmsg.payload = msg.payload.query\nreturn msg;",
        "outputs": 1,
        "noerr": 0,
        "x": 430,
        "y": 260,
        "wires": [
            [
                "c1e0c449.9d72d8",
                "c753fa1.0d42d08"
            ]
        ]
    },
    {
        "id": "423a215e.95cba",
        "type": "inject",
        "z": "41f61d2.fbe09e4",
        "name": "tick1",
        "topic": "",
        "payload": "qry_tmp",
        "payloadType": "global",
        "repeat": "",
        "crontab": "",
        "once": false,
        "onceDelay": "0.5",
        "x": 130,
        "y": 640,
        "wires": [
            [
                "ebe03eaa.778c1"
            ]
        ]
    },
    {
        "id": "ebe03eaa.778c1",
        "type": "debug",
        "z": "41f61d2.fbe09e4",
        "name": "",
        "active": false,
        "tosidebar": true,
        "console": false,
        "tostatus": false,
        "complete": "false",
        "x": 300,
        "y": 660,
        "wires": []
    },
    {
        "id": "c13c1ce4.3c9f3",
        "type": "inject",
        "z": "41f61d2.fbe09e4",
        "name": "tick1",
        "topic": "",
        "payload": "q_count",
        "payloadType": "global",
        "repeat": "",
        "crontab": "",
        "once": false,
        "onceDelay": "0.5",
        "x": 130,
        "y": 700,
        "wires": [
            [
                "ebe03eaa.778c1"
            ]
        ]
    },
    {
        "id": "3d3af0fd.6aa03",
        "type": "inject",
        "z": "41f61d2.fbe09e4",
        "name": "tick1",
        "topic": "",
        "payload": "qry_tmp",
        "payloadType": "global",
        "repeat": "",
        "crontab": "",
        "once": false,
        "onceDelay": "0.5",
        "x": 130,
        "y": 760,
        "wires": [
            [
                "ebe03eaa.778c1"
            ]
        ]
    },
    {
        "id": "edcc3920.371cf8",
        "type": "debug",
        "z": "41f61d2.fbe09e4",
        "name": "",
        "active": true,
        "tosidebar": true,
        "console": false,
        "tostatus": false,
        "complete": "true",
        "targetType": "full",
        "x": 1210,
        "y": 180,
        "wires": []
    },
    {
        "id": "fede98fb.46ed38",
        "type": "debug",
        "z": "41f61d2.fbe09e4",
        "name": "",
        "active": true,
        "tosidebar": true,
        "console": false,
        "tostatus": false,
        "complete": "true",
        "targetType": "full",
        "x": 1190,
        "y": 320,
        "wires": []
    },
    {
        "id": "f703c796.c3eea8",
        "type": "function",
        "z": "41f61d2.fbe09e4",
        "name": "MAP2",
        "func": "global.set('map_db',msg.payload)\n\nmsg.payload = msg.payload.query\nreturn msg;",
        "outputs": 1,
        "noerr": 0,
        "x": 430,
        "y": 320,
        "wires": [
            [
                "9ff729a3.974658"
            ]
        ]
    },
    {
        "id": "e0e53c79.b1705",
        "type": "inject",
        "z": "41f61d2.fbe09e4",
        "name": "",
        "topic": "",
        "payload": "",
        "payloadType": "date",
        "repeat": "",
        "crontab": "",
        "once": false,
        "onceDelay": 0.1,
        "x": 460,
        "y": 40,
        "wires": [
            [
                "c1a37dd.3720c8"
            ]
        ]
    }
]