4001,Poring_Card,Poring Card,6,20,,10,,,,,,,,16,,,,,{ bonus bLuk,2; bonus bFlee2,1; },{},{}
4002,Fabre_Card,Fabre Card,6,20,,10,,,,,,,,2,,,,,{ bonus bVit,1; bonus bMaxHP,100; },{},{}
4003,Pupa_Card,Pupa Card,6,20,,10,,,,,,,,16,,,,,{ bonus bMaxHP,700; },{},{}
4004,Drops_Card,Drops Card,6,20,,10,,,,,,,,2,,,,,{ bonus bDex,1; bonus bHit,3; },{},{}
4005,Poring__Card,Santa Poring Card,6,20,,10,,,,,,,,2,,,,,{ bonus2 bAddEle,Ele_Dark,20; },{},{}
4006,Lunatic_Card,Lunatic Card,6,20,,10,,,,,,,,2,,,,,{ bonus bLuk,1; bonus bCritical,1; bonus bFlee2,1; },{},{}
4007,Pecopeco_Egg_Card,Peco Peco Egg Card,6,20,,10,,,,,,,,2,,,,,{ bonus2 bAddRace,RC_Formless,20; },{},{}
4008,Picky_Card,Picky Card,6,20,,10,,,,,,,,16,,,,,{ bonus bStr,1; bonus bBaseAtk,10; },{},{}
4009,Chonchon_Card,Chonchon Card,6,20,,10,,,,,,,,64,,,,,{ bonus bAgi,1; bonus bFlee,2; },{},{}
4010,Wilow_Card,Willow Card,6,20,,10,,,,,,,,769,,,,,{ bonus bMaxSP,80; },{},{}
4011,Picky__Card,Picky Egg Card,6,20,,10,,,,,,,,16,,,,,{ bonus bVit,1; bonus bMaxHP,100; },{},{}
4012,Thief_Bug_Egg_Card,Thief Bug Egg Card,6,20,,10,,,,,,,,32,,,,,{ bonus bMaxHP,400; },{},{}
4013,Andre_Egg_Card,Andre Egg Card,6,20,,10,,,,,,,,32,,,,,{ bonus bMaxHPrate,5; },{},{}
4014,Roda_Frog_Card,Roda Frog Card,6,20,,10,,,,,,,,16,,,,,{ bonus bMaxHP,400; bonus bMaxSP,50; },{},{}
4015,Condor_Card,Condor Card,6,20,,10,,,,,,,,4,,,,,{ bonus bFlee,10; },{},{}
4016,Thief_Bug_Card,Thief Bug Card,6,20,,10,,,,,,,,16,,,,,{ bonus bAgi,1; },{},{}
4017,Savage_Babe_Card,Savage Babe Card,6,20,,10,,,,,,,,2,,,,,{ bonus2 bAddEff,Eff_Stun,500; },{},{}
4018,Andre_Larva_Card,Andre Larva Card,6,20,,10,,,,,,,,2,,,,,{ bonus bInt,1; bonus bMaxSP,10; },{},{}
4019,Hornet_Card,Hornet Card,6,20,,10,,,,,,,,2,,,,,{ bonus bStr,1; bonus bBaseAtk,3; },{},{}
4020,Farmiliar_Card,Familiar Card,6,20,,10,,,,,,,,2,,,,,{ bonus2 bAddEff,Eff_Blind,500; bonus bBaseAtk,5; },{},{}
4021,Rocker_Card,Rocker Card,6,20,,10,,,,,,,,16,,,,,{ bonus bDex,1; bonus bBaseAtk,5; },{},{}
4022,Spore_Card,Spore Card,6,20,,10,,,,,,,,136,,,,,{ bonus bVit,2; },{},{}
4023,Desert_Wolf_Babe_Card,Baby Desert Wolf Card,6,20,,10,,,,,,,,16,,,,,{ bonus bInt,1; },{},{}
4024,Plankton_Card,Plankton Card,6,20,,10,,,,,,,,2,,,,,{ bonus2 bAddEff,Eff_Sleep,500; bonus bBaseAtk,5; },{},{}
4025,Skeleton_Card,Skeleton Card,6,20,,10,,,,,,,,2,,,,,{ bonus bBaseAtk,10; bonus2 bAddEff,Eff_Stun,200; },{},{}
4026,Thief_Bug_Female_Card,Female Thief Bug Card,6,20,,10,,,,,,,,2,,,,,{ bonus bAgi,1; bonus bFlee,1; },{},{}
4027,Kukre_Card,Kukre Card,6,20,,10,,,,,,,,136,,,,,{ bonus bAgi,2; },{},{}
4028,Tarou_Card,Tarou Card,6,20,,10,,,,,,,,136,,,,,{ bonus bStr,2; },{},{}
4029,Wolf_Card,Wolf Card,6,20,,10,,,,,,,,2,,,,,{ bonus bBaseAtk,15; bonus bCritical,1; },{},{}
4030,Mandragora_Card,Mandragora Card,6,20,,10,,,,,,,,2,,,,,{ bonus2 bAddEle,Ele_Wind,20; },{},{}
4031,Pecopeco_Card,Peco Peco Card,6,20,,10,,,,,,,,16,,,,,{ bonus bMaxHPrate,10; },{},{}
4032,Ambernite_Card,Ambernite Card,6,20,,10,,,,,,,,32,,,,,{ bonus bDef,2; },{},{}
4033,Poporing_Card,Poporing Card,6,20,,10,,,,,,,,136,,,,,{ skill "TF_DETOXIFY",1; },{},{}
4034,Worm_Tail_Card,Wormtail Card,6,20,,10,,,,,,,,136,,,,,{ bonus bDex,2; },{},{}
4035,Hydra_Card,Hydra Card,6,20,,10,,,,,,,,2,,,,,{ bonus2 bAddRace,RC_DemiHuman,20; bonus2 bAddRace,RC_Player,20; },{},{}
4036,Muka_Card,Muka Card,6,20,,10,,,,,,,,136,,,,,{ bonus bHPrecovRate,10; },{},{}
4037,Snake_Card,Snake Card,6,20,,10,,,,,,,,2,,,,,{ bonus2 bAddEff,Eff_Poison,500; bonus bBaseAtk,5; },{},{}
4038,Zombie_Card,Zombie Card,6,20,,10,,,,,,,,64,,,,,{ bonus bHPrecovRate,20; },{},{}
4039,Stainer_Card,Stainer Card,6,20,,10,,,,,,,,769,,,,,{ bonus2 bResEff,Eff_Silence,2000; bonus bDef,1; },{},{}
4040,Creamy_Card,Creamy Card,6,20,,10,,,,,,,,136,,,,,{ skill "AL_TELEPORT",1; },{},{}
4041,Coco_Card,Coco Card,6,20,,10,,,,,,,,769,,,,,{ bonus2 bResEff,Eff_Sleep,2000; bonus bDef,1; },{},{}
4042,Steel_Chonchon_Card,Steel Chonchon Card,6,20,,10,,,,,,,,16,,,,,{ bonus2 bSubEle,Ele_Wind,10; bonus bDef,2; },{},{}
4043,Andre_Card,Andre Card,6,20,,10,,,,,,,,2,,,,,{ bonus bBaseAtk,20; },{},{}
4044,Smokie_Card,Smokie Card,6,20,,10,,,,,,,,136,,,,,{ skill "TF_HIDING",1; },{},{ sc_end SC_HIDING; }
4045,Horn_Card,Horn Card,6,20,,10,,,,,,,,32,,,,,{ bonus bLongAtkDef,35; },{},{}
4046,Martin_Card,Martin Card,6,20,,10,,,,,,,,769,,,,,{ bonus2 bResEff,Eff_Blind,2000; bonus bDef,1; },{},{}
4047,Ghostring_Card,Ghostring Card,6,20,,10,,,,,,,,16,,,,,{ bonus bDefEle,Ele_Ghost; bonus bHPrecovRate,-25; },{},{}
4048,Poison_Spore_Card,Poison Spore Card,6,20,,10,,,,,,,,136,,,,,{ skill "TF_POISON",3; },{},{}
4049,Vadon_Card,Vadon Card,6,20,,10,,,,,,,,2,,,,,{ bonus2 bAddEle,Ele_Fire,20; },{},{}
4050,Thief_Bug_Male_Card,Male Thief Bug Card,6,20,,10,,,,,,,,64,,,,,{ bonus bAgi,2; },{},{}
4051,Yoyo_Card,Yoyo Card,6,20,,10,,,,,,,,136,,,,,{ bonus bFlee2,5; bonus bAgi,1; },{},{}
4052,Elder_Wilow_Card,Elder Willow Card,6,20,,10,,,,,,,,769,,,,,{ bonus bInt,2; },{},{}
4053,Vitata_Card,Vitata Card,6,20,,10,,,,,,,,136,,,,,{ skill "AL_HEAL",1; bonus bUseSPrate,25; },{},{}
4054,Angeling_Card,Angeling Card,6,20,,10,,,,,,,,16,,,,,{ bonus bDefEle,Ele_Holy; },{},{}
4055,Marina_Card,Marina Card,6,20,,10,,,,,,,,2,,,,,{ bonus2 bAddEff,Eff_Freeze,500; bonus bBaseAtk,5; },{},{}
4056,Dustiness_Card,Dustiness Card,6,20,,10,,,,,,,,4,,,,,{ bonus2 bSubEle,Ele_Wind,30; bonus bFlee,5; },{},{}
4057,Metaller_Card,Metaller Card,6,20,,10,,,,,,,,2,,,,,{ bonus2 bAddEff,Eff_Silence,500; bonus bBaseAtk,5; },{},{}
4058,Thara_Frog_Card,Thara Frog Card,6,20,,10,,,,,,,,32,,,,,{ bonus2 bSubRace,RC_DemiHuman,30; bonus2 bSubRace,RC_Player,30; },{},{}
4059,Soldier_Andre_Card,Soldier Andre Card,6,20,,10,,,,,,,,32,,,,,{ bonus2 bSubRace,RC_Plant,30; },{},{}
4060,Goblin_Card,Goblin Card,6,20,,10,,,,,,,,2,,,,,{ bonus2 bAddRace,RC_Brute,20; },{},{}
4061,Cornutus_Card,Cornutus Card,6,20,,10,,,,,,,,16,,,,,{ bonus bUnbreakableArmor; bonus bDef,1; },{},{}
4062,Anacondaq_Card,Anacondaq Card,6,20,,10,,,,,,,,2,,,,,{ bonus2 bAddEle,Ele_Poison,20; },{},{}
4063,Caramel_Card,Caramel Card,6,20,,10,,,,,,,,2,,,,,{ bonus2 bAddRace,RC_Insect,20; },{},{}
4064,Zerom_Card,Zerom Card,6,20,,10,,,,,,,,136,,,,,{ bonus bDex,3; },{},{}
4065,Kaho_Card,Kaho Card,6,20,,10,,,,,,,,2,,,,,{ bonus2 bAddEle,Ele_Earth,20; },{},{}
4066,Orc_Warrior_Card,Orc Warrior Card,6,20,,10,,,,,,,,32,,,,,{ bonus2 bSubRace,RC_Brute,30; },{},{}
4067,Megalodon_Card,Megalodon Card,6,20,,10,,,,,,,,32,,,,,{ bonus2 bResEff,Eff_Freeze,2000; bonus bDef,1; },{},{}
4068,Scorpion_Card,Scorpion Card,6,20,,10,,,,,,,,2,,,,,{ bonus2 bAddRace,RC_Plant,20; },{},{}
4069,Drainliar_Card,Drainliar Card,6,20,,10,,,,,,,,2,,,,,{ bonus2 bAddEle,Ele_Water,20; },{},{}
4070,Eggyra_Card,Eggyra Card,6,20,,10,,,,,,,,64,,,,,{ bonus bSPrecovRate,15; },{},{}
4071,Orc_Zombie_Card,Orc Zombie Card,6,20,,10,,,,,,,,4,,,,,{ bonus2 bSubEle,Ele_Undead,30; bonus bFlee,5; },{},{}
4072,Golem_Card,Golem Card,6,20,,10,,,,,,,,2,,,,,{ bonus bUnbreakableWeapon; bonus bBaseAtk,5; },{},{}
4073,Pirate_Skel_Card,Pirate Skeleton Card,6,20,,10,,,,,,,,136,,,,,{ skill "MC_DISCOUNT",5; },{},{}
4074,BigFoot_Card,Bigfoot Card,6,20,,10,,,,,,,,32,,,,,{ bonus2 bSubRace,RC_Insect,30; },{},{}
4075,Argos_Card,Argos Card,6,20,,10,,,,,,,,32,,,,,{ bonus2 bResEff,Eff_Stone,2000; bonus bDef,1; },{},{}
4076,Magnolia_Card,Magnolia Card,6,20,,10,,,,,,,,2,,,,,{ bonus2 bAddEff,Eff_Curse,500; bonus bBaseAtk,5; },{},{}
4077,Phen_Card,Phen Card,6,20,,10,,,,,,,,136,,,,,{ bonus bNoCastCancel; bonus bVariableCastrate,25; },{},{}
4078,Savage_Card,Savage Card,6,20,,10,,,,,,,,16,,,,,{ bonus bVit,3; },{},{}
4079,Mantis_Card,Mantis Card,6,20,,10,,,,,,,,136,,,,,{ bonus bStr,3; },{},{}
4080,Flora_Card,Flora Card,6,20,,10,,,,,,,,2,,,,,{ bonus2 bAddRace,RC_Fish,20; },{},{}
4081,Hode_Card,Hode Card,6,20,,10,,,,,,,,4,,,,,{ bonus2 bSubEle,Ele_Earth,30; bonus bFlee,5; },{},{}
4082,Desert_Wolf_Card,Desert Wolf Card,6,20,,10,,,,,,,,2,,,,,{ bonus2 bAddSize,Size_Small,15; bonus bBaseAtk,5; },{},{}
4083,Rafflesia_Card,Rafflesia Card,6,20,,10,,,,,,,,32,,,,,{ bonus2 bSubRace,RC_Fish,30; },{},{}
4084,Marine_Sphere_Card,Marine Sphere Card,6,20,,10,,,,,,,,136,,,,,{ skill "SM_MAGNUM",3; },{},{}
4085,Orc_Skeleton_Card,Orc Skeleton Card,6,20,,10,,,,,,,,2,,,,,{ bonus2 bAddEle,Ele_Holy,20; },{},{}
4086,Soldier_Skeleton_Card,Soldier Skeleton Card,6,20,,10,,,,,,,,2,,,,,{ bonus bCritical,9; },{},{}
4087,Giearth_Card,Giearth Card,6,20,,10,,,,,,,,769,,,,,{ bonus2 bResEff,Eff_Confusion,10000; bonus2 bSubEle,Ele_Earth,15; },{},{}
4088,Frilldora_Card,Frilldora Card,6,20,,10,,,,,,,,4,,,,,{ skill "AS_CLOAKING",1; },{},{ sc_end SC_CLOAKING; }
4089,Sword_Fish_Card,Swordfish Card,6,20,,10,,,,,,,,16,,,,,{ bonus bDefEle,Ele_Water; bonus bDef,1; },{},{}
4090,Munak_Card,Munak Card,6,20,,10,,,,,,,,32,,,,,{ bonus2 bResEff,Eff_Stone,1500; bonus2 bSubEle,Ele_Earth,5; bonus bDef,1; },{},{}
4091,Kobold_Card,Kobold Card,6,20,,10,,,,,,,,136,,,,,{ bonus bStr,1; bonus bCritical,4; },{},{}
4092,Skel_Worker_Card,Skeleton Worker Card,6,20,,10,,,,,,,,2,,,,,{ bonus2 bAddSize,Size_Medium,15; bonus bBaseAtk,5; },{},{}
4093,Obeaune_Card,Obeaune Card,6,20,,10,,,,,,,,136,,,,,{ skill "AL_CURE",1; },{},{}
4094,Archer_Skeleton_Card,Archer Skeleton Card,6,20,,10,,,,,,,,2,,,,,{ bonus bLongAtkRate,10; },{},{}
4095,Marse_Card,Marse Card,6,20,,10,,,,,,,,4,,,,,{ bonus2 bSubEle,Ele_Water,30; bonus bFlee,5; },{},{}
4096,Zenorc_Card,Zenorc Card,6,20,,10,,,,,,,,2,,,,,{ bonus2 bAddEff,Eff_Poison,400; bonus bBaseAtk,10; },{},{}
4097,Matyr_Card,Matyr Card,6,20,,10,,,,,,,,64,,,,,{ bonus bMaxHPrate,10; bonus bAgi,1; },{},{}
4098,Dokebi_Card,Dokebi Card,6,20,,10,,,,,,,,16,,,,,{ bonus bDefEle,Ele_Wind; bonus bDef,1; },{},{}
4099,Pasana_Card,Pasana Card,6,20,,10,,,,,,,,16,,,,,{ bonus bDefEle,Ele_Fire; bonus bDef,1; },{},{}
4100,Sohee_Card,Sohee Card,6,20,,10,,,,,,,,64,,,,,{ bonus bMaxSPrate,15; bonus bSPrecovRate,3; },{},{}
4101,Sand_Man_Card,Sandman Card,6,20,,10,,,,,,,,16,,,,,{ bonus bDefEle,Ele_Earth; bonus bDef,1; },{},{}
4102,Whisper_Card,Whisper Card,6,20,,10,,,,,,,,4,,,,,{ bonus bFlee,20; bonus2 bSubEle,Ele_Ghost,-50; },{},{}
4103,Horong_Card,Horong Card,6,20,,10,,,,,,,,136,,,,,{ skill "MG_SIGHT",1; },{},{ sc_end SC_SIGHT; }
4104,Requiem_Card,Requiem Card,6,20,,10,,,,,,,,2,,,,,{ bonus2 bAddEff,Eff_Confusion,500; },{},{}
4105,Marc_Card,Marc Card,6,20,,10,,,,,,,,16,,,,,{ bonus2 bSubEle,Ele_Water,5; bonus2 bResEff,Eff_Freeze,10000; },{},{}
4106,Mummy_Card,Mummy Card,6,20,,10,,,,,,,,2,,,,,{ bonus bHit,20; },{},{}
4107,Verit_Card,Verit Card,6,20,,10,,,,,,,,64,,,,,{ bonus bMaxHPrate,8; bonus bMaxSPrate,8; },{},{}
4108,Myst_Card,Myst Card,6,20,,10,,,,,,,,4,,,,,{ bonus2 bSubEle,Ele_Poison,30; bonus bFlee,5; },{},{}
4109,Jakk_Card,Jakk Card,6,20,,10,,,,,,,,4,,,,,{ bonus2 bSubEle,Ele_Fire,30; bonus bFlee,5; },{},{}
4110,Ghoul_Card,Ghoul Card,6,20,,10,,,,,,,,769,,,,,{ bonus2 bResEff,Eff_Poison,2000; bonus bDef,1; },{},{}
4111,Strouf_Card,Strouf Card,6,20,,10,,,,,,,,2,,,,,{ bonus2 bAddRace,RC_Demon,20; },{},{}
4112,Marduk_Card,Marduk Card,6,20,,10,,,,,,,,769,,,,,{ bonus2 bResEff,Eff_Silence,10000; },{},{}
4113,Marionette_Card,Marionette Card,6,20,,10,,,,,,,,4,,,,,{ bonus2 bSubEle,Ele_Ghost,30; bonus bFlee,5; },{},{}
4114,Argiope_Card,Argiope Card,6,20,,10,,,,,,,,16,,,,,{ bonus bDefEle,Ele_Poison; bonus bDef,1; },{},{}
4115,Hunter_Fly_Card,Hunter Fly Card,6,20,,10,,,,,,,,2,,,,,{ bonus2 bHPDrainRate,30,15; },{},{}
4116,Isis_Card,Isis Card,6,20,,10,,,,,,,,4,,,,,{ bonus2 bSubEle,Ele_Dark,30; bonus bFlee,5; },{},{}
4117,Side_Winder_Card,Sidewinder Card,6,20,,10,,,,,,,,2,,,,,{ skill "TF_DOUBLE",1; bonus bDoubleRate,5; },{},{}
4118,Petit_Card,Earth Petite Card,6,20,,10,,,,,,,,2,,,,,{ bonus2 bAddRace,RC_Dragon,20; },{},{}
4119,Bathory_Card,Bathory Card,6,20,,10,,,,,,,,16,,,,,{ bonus bDefEle,Ele_Dark; },{},{}
4120,Petit__Card,Sky Petite Card,6,20,,10,,,,,,,,32,,,,,{ bonus2 bSubRace,RC_Dragon,30; },{},{}
4121,Phreeoni_Card,Phreeoni Card,6,20,,10,,,,,,,,2,,,,,{ bonus bHit,100; },{},{}
4122,Deviruchi_Card,Deviruchi Card,6,20,,10,,,,,,,,769,,,,,{ bonus bStr,1; bonus2 bResEff,Eff_Blind,10000; },{},{}
4123,Eddga_Card,Eddga Card,6,20,,10,,,,,,,,64,,,,,{ bonus bMaxHPrate,-25; bonus bNoWalkDelay; },{},{}
4124,Medusa_Card,Medusa Card,6,20,,10,,,,,,,,32,,,,,{ bonus2 bSubRace,RC_Demon,15; bonus2 bResEff,Eff_Stone,10000; },{},{}
4125,Deviace_Card,Deviace Card,6,20,,10,,,,,,,,2,,,,,{ bonus2 bAddRace,RC_DemiHuman,7; bonus2 bAddRace,RC_Player,7; bonus2 bAddRace,RC_Brute,7; bonus2 bAddRace,RC_Plant,7; bonus2 bAddRace,RC_Insect,7; },{},{}
4126,Minorous_Card,Minorous Card,6,20,,10,,,,,,,,2,,,,,{ bonus2 bAddSize,Size_Large,15; bonus bBaseAtk,5; },{},{}
4127,Nightmare_Card,Nightmare Card,6,20,,10,,,,,,,,769,,,,,{ bonus2 bResEff,Eff_Sleep,10000; bonus bAgi,1; },{},{}
4128,Golden_Bug_Card,Golden Thief Bug Card,6,20,,10,,,,,,,,32,,,,,{ bonus bNoMagicDamage,100; bonus bUseSPrate,100; },{},{}
4129,Baphomet__Card,Bapho Jr. Card,6,20,,10,,,,,,,,4,,,,,{ bonus bAgi,3; bonus bCritical,1; },{},{}
4130,Scorpion_King_Card,Scorpion King Card,6,20,,10,,,,,,,,2,,,,,{ bonus2 bAddEle,Ele_Undead,20; },{},{}
4131,Moonlight_Flower_Card,Moonlight Flower Card,6,20,,10,,,,,,,,64,,,,,{ bonus bSpeedRate,25; },{},{}
4132,Mistress_Card,Mistress Card,6,20,,10,,,,,,,,769,,,,,{ bonus bNoGemStone; bonus bUseSPrate,25; },{},{}
4133,Daydric_Card,Raydric Card,6,20,,10,,,,,,,,4,,,,,{ bonus2 bSubEle,Ele_Neutral,20; },{},{}
4134,Dracula_Card,Dracula Card,6,20,,10,,,,,,,,2,,,,,{ bonus2 bSPDrainRate,100,5; },{},{}
4135,Orc_Load_Card,Orc Lord Card,6,20,,10,,,,,,,,16,,,,,{ bonus bShortWeaponDamageReturn,30; },{},{}
4136,Khalitzburg_Card,Khalitzburg Card,6,20,,10,,,,,,,,32,,,,,{ bonus2 bSubRace,RC_Demon,30; },{},{}
4137,Drake_Card,Drake Card,6,20,,10,,,,,,,,2,,,,,{ bonus bNoSizeFix; },{},{}
4138,Anubis_Card,Anubis Card,6,20,,10,,,,,,,,32,,,,,{ bonus2 bSubRace,RC_Angel,30; },{},{}
4139,Joker_Card,Joker Card,6,20,,10,,,,,,,,136,,,,,{ skill "TF_STEAL",1; },{},{}
4140,Knight_Of_Abyss_Card,Abysmal Knight Card,6,20,,10,,,,,,,,2,,,,,{ bonus2 bAddClass,Class_Boss,25; },{},{}
4141,Evil_Druid_Card,Evil Druid Card,6,20,,10,,,,,,,,16,,,,,{ bonus bDefEle,Ele_Undead; bonus bInt,1; bonus bDef,1; },{},{}
4142,Doppelganger_Card,Doppelganger Card,6,20,,10,,,,,,,,2,,,,,{ bonus bAspdRate,10; },{},{}
4143,Orc_Hero_Card,Orc Hero Card,6,20,,10,,,,,,,,769,,,,,{ bonus bVit,3; bonus2 bResEff,Eff_Stun,10000; },{},{}
4144,Osiris_Card,Osiris Card,6,20,,10,,,,,,,,136,,,,,{ bonus bRestartFullRecover; },{},{}
4145,Berzebub_Card,Berzebub Card,6,20,,10,,,,,,,,136,,,,,{ bonus bVariableCastrate,-30; },{},{}
4146,Maya_Card,Maya Card,6,20,,10,,,,,,,,32,,,,,{ bonus bMagicDamageReturn,50; },{},{}
4147,Baphomet_Card,Baphomet Card,6,20,,10,,,,,,,,2,,,,,{ bonus bHit,-10; bonus bSplashRange,1; },{},{}
4148,Pharaoh_Card,Pharaoh Card,6,20,,10,,,,,,,,769,,,,,{ bonus bUseSPrate,-30; },{},{}
4149,Gargoyle_Card,Gargoyle Card,6,20,,10,,,,,,,,136,,,,,{ bonus3 bAddMonsterDropItem,12028,RC_Insect,100; },{},{}
4150,Goat_Card,Goat Card,6,20,,10,,,,,,,,16,,,,,{ if(getrefine()<6) { bonus bDef,2; bonus bMdef,5; } },{},{}
4151,Gajomart_Card,Gajomart Card,6,20,,10,,,,,,,,64,,,,,{ bonus2 bSubRace,RC_Plant,-20; bonus2 bExpAddRace,RC_Plant,10; },{},{}
4152,Galapago_Card,Galapago Card,6,20,,10,,,,,,,,136,,,,,{ bonus2 bAddItemGroupHealRate,IG_Juice,50; bonus3 bAddMonsterDropItem,531,RC_Insect,300; bonus3 bAddMonsterDropItem,532,RC_Insect,300; bonus3 bAddMonsterDropItem,534,RC_Insect,300; },{},{}
4153,Crab_Card,Crab Card,6,20,,10,,,,,,,,2,,,,,{ bonus bBaseAtk,5; bonus2 bAddDamageClass,1266,30; },{},{}
4154,Rice_Cake_Boy_Card,Dumpling Child Card,6,20,,10,,,,,,,,136,,,,,{ bonus2 bAddItemGroupHealRate,IG_Candy,50; bonus3 bAddMonsterDropItem,529,RC_DemiHuman,300; bonus3 bAddMonsterDropItem,530,RC_DemiHuman,100; },{},{}
4155,Goblin_Leader_Card,Goblin Leader Card,6,20,,10,,,,,,,,2,,,,,{ bonus2 bAddRace2,RC2_Goblin,30; },{},{}
4156,Steam_Goblin_Card,Goblin Steamrider Card,6,20,,10,,,,,,,,2,,,,,{ bonus bCritAtkRate,10; bonus2 bCriticalAddRace,RC_Formless,7; },{},{}
4157,Goblin_Archer_Card,Goblin Archer Card,6,20,,10,,,,,,,,2,,,,,{ bonus bCritAtkRate,10; bonus2 bCriticalAddRace,RC_Undead,7; },{},{}
4158,Flying_Deleter_Card,Sky Deleter Card,6,20,,10,,,,,,,,16,,,,,{ bonus bHPrecovRate,-100; bonus bHPGainValue,100; },{},{}
4159,Nine_Tail_Card,Nine Tail Card,6,20,,10,,,,,,,,4,,,,,{ bonus bAgi,2; if(getrefine()>8) bonus bFlee,20; },{},{}
4160,Antique_Firelock_Card,Firelock Soldier Card,6,20,,10,,,,,,,,64,,,,,{ bonus bStr,2; if(getrefine()>8) { bonus bMaxHPrate,10; bonus bMaxSPrate,10; } },{},{}
4161,Grand_Peco_Card,Grand Peco Card,6,20,,10,,,,,,,,769,,,,,{ bonus3 bAutoSpellWhenHit,"PR_GLORIA",1,50; },{},{}
4162,Grizzly_Card,Grizzly Card,6,20,,10,,,,,,,,16,,,,,{ bonus2 bAddEffWhenHit,Eff_Blind,300; },{},{}
4163,Gryphon_Card,Gryphon Card,6,20,,10,,,,,,,,2,,,,,{ bonus bFlee,2; bonus bCritical,7; if(BaseClass==Job_Swordman) bonus3 bAutoSpell,"KN_BOWLINGBASH",5,10; },{},{}
4164,Gullinbursti_Card,Gullinbursti Card,6,20,,10,,,,,,,,64,,,,,{ bonus2 bSubRace,RC_Fish,-20; bonus2 bExpAddRace,RC_Fish,10; },{},{}
4165,Gig_Card,Gig Card,6,20,,10,,,,,,,,2,,,,,{ bonus2 bSPGainRace,RC_Insect,5; },{},{ heal 0,-5; }
4166,Nightmare_Terror_Card,Nightmare Terror Card,6,20,,10,,,,,,,,16,,,,,{ bonus2 bAddEffWhenHit,Eff_Curse,300; },{},{}
4167,Neraid_Card,Nereid Card,6,20,,10,,,,,,,,2,,,,,{ bonus2 bSPGainRace,RC_Brute,5; },{},{ heal 0,-5; }
4168,Dark_Lord_Card,Dark Lord Card,6,20,,10,,,,,,,,64,,,,,{ bonus3 bAutoSpellWhenHit,"WZ_METEOR",5,100; },{},{}
4169,Dark_Illusion_Card,Dark Illusion Card,6,20,,10,,,,,,,,769,,,,,{ bonus bMaxHPrate,-10; bonus bMaxSPrate,-10; bonus bVariableCastrate,-10; },{},{}
4170,Dark_Frame_Card,Dark Frame Card,6,20,,10,,,,,,,,16,,,,,{ bonus2 bAddEffWhenHit,Eff_Stone,600; },{},{}
4171,Dark_Priest_Card,Dark Priest Card,6,20,,10,,,,,,,,2,,,,,{ bonus3 bSPVanishRate,50,10,BF_WEAPON|BF_MAGIC|BF_MISC; if(BaseJob==Job_Sage) bonus bSPDrainValue,1; },{},{}
4172,The_Paper_Card,The Paper Card,6,20,,10,,,,,,,,2,,,,,{ bonus bCritAtkRate,20; bonus bSPDrainValue,-1; },{},{}
4173,Demon_Pungus_Card,Demon Pungus Card,6,20,,10,,,,,,,,16,,,,,{ bonus2 bAddEffWhenHit,Eff_Sleep,600; },{},{}
4174,Deviling_Card,Deviling Card,6,20,,10,,,,,,,,4,,,,,{ bonus2 bSubEle,Ele_Neutral,50; bonus2 bSubEle,Ele_Water,-50; bonus2 bSubEle,Ele_Earth,-50; bonus2 bSubEle,Ele_Fire,-50; bonus2 bSubEle,Ele_Wind,-50; bonus2 bSubEle,Ele_Poison,-50; bonus2 bSubEle,Ele_Holy,-50; bonus2 bSubEle,Ele_Dark,-50; bonus2 bSubEle,Ele_Ghost,-50; bonus2 bSubEle,Ele_Undead,-50; },{},{}
4175,Poison_Toad_Card,Poisonous Toad Card,6,20,,10,,,,,,,,136,,,,,{ bonus3 bAutoSpell,"TF_POISON",1,20; bonus2 bAddSkillBlow,52,5; },{},{}
4176,Dullahan_Card,Dullahan Card,6,20,,10,,,,,,,,2,,,,,{ bonus bCritAtkRate,10; bonus2 bCriticalAddRace,RC_Dragon,7; },{},{}
4177,Dryad_Card,Dryad Card,6,20,,10,,,,,,,,769,,,,,{ bonus3 bAddMonsterDropItem,993,RC_Plant,100; bonus2 bSubEle,Ele_Earth,10; },{},{}
4178,Dragon_Tail_Card,Dragon Tail Card,6,20,,10,,,,,,,,4,,,,,{ bonus bAgi,1; bonus bFlee,10; bonus2 bSkillAtk,"AC_DOUBLE",5; bonus2 bSkillAtk,"AC_SHOWER",5; },{},{}
4179,Dragon_Fly_Card,Dragon Fly Card,6,20,,10,,,,,,,,4,,,,,{ bonus bAgi,1; },{},{}
4180,Driller_Card,Driller Card,6,20,,10,,,,,,,,2,,,,,{ bonus2 bSPGainRace,RC_Dragon,5; },{},{ heal 0,-5; }
4181,Disguise_Card,Disguise Card,6,20,,10,,,,,,,,16,,,,,{ bonus2 bAddEffWhenHit,Eff_Silence,300+600*(readparam(bVit)>=77); },{},{}
4182,Diabolic_Card,Diabolic Card,6,20,,10,,,,,,,,2,,,,,{ bonus2 bSPGainRace,RC_Demon,5; },{},{ heal 0,-5; }
4183,Vagabond_Wolf_Card,Vagabond Wolf Card,6,20,,10,,,,,,,,4,,,,,{ bonus bStr,1; },{},{}
4184,Lava_Golem_Card,Lava Golem Card,6,20,,10,,,,,,,,2,,,,,{ bonus2 bAddRace2,RC2_Golem,30; },{},{}
4185,Rideword_Card,Rideword Card,6,20,,10,,,,,,,,769,,,,,{ bonus bInt,1; if(BaseClass==Job_Acolyte) { bonus bInt,1; bonus bMdef,1; } },{},{}
4186,Raggler_Card,Raggler Card,6,20,,10,,,,,,,,64,,,,,{ bonus bStr,1; bonus bVit,1; },{},{}
4187,Raydric_Archer_Card,Raydric Archer Card,6,20,,10,,,,,,,,136,,,,,{ bonus3 bAddMonsterDropItem,12030,RC_Demon,100; },{},{}
4188,Leib_Olmai_Card,Leib Olmai Card,6,20,,10,,,,,,,,769,,,,,{ bonus2 bSubEle,Ele_Fire,10; bonus3 bAddMonsterDropItem,990,RC_Brute,100; },{},{}
4189,Wraith_Dead_Card,Wraith Dead Card,6,20,,10,,,,,,,,16,,,,,{ bonus2 bAddEffWhenHit,Eff_Curse,600; },{},{}
4190,Wraith_Card,Wraith Card,6,20,,10,,,,,,,,136,,,,,{ bonus3 bAddMonsterDropItem,12027,RC_Undead,100; },{},{}
4191,Loli_Ruri_Card,Loli Ruri Card,6,20,,10,,,,,,,,16,,,,,{ bonus3 bAutoSpellWhenHit,"AL_HEAL",3,50; },{},{}
4192,Rotar_Zairo_Card,Rotar Zairo Card,6,20,,10,,,,,,,,2,,,,,{ bonus bCritAtkRate,10; bonus2 bCriticalAddRace,RC_Fish,7; },{},{}
4193,Lude_Card,Lude Card,6,20,,10,,,,,,,,136,,,,,{ if(BaseJob==Job_Novice||BaseJob==Job_SuperNovice) bonus3 bAutoSpellWhenHit,"SM_ENDURE",1,200; },{},{}
4194,Rybio_Card,Rybio Card,6,20,,10,,,,,,,,16,,,,,{ bonus2 bAddEffWhenHit,Eff_Stun,300+600*(readparam(bDex)>=77); },{},{}
4195,Leaf_Cat_Card,Leaf Cat Card,6,20,,10,,,,,,,,769,,,,,{ bonus2 bSubEle,Ele_Water,10; bonus3 bAddMonsterDropItem,991,RC_Fish,100; },{},{}
4196,Marin_Card,Marin Card,6,20,,10,,,,,,,,136,,,,,{ bonus2 bAddMonsterDropItem,909,2000; bonus2 bAddMonsterDropItem,7126,10; },{},{}
4197,Mastering_Card,Mastering Card,6,20,,10,,,,,,,,4,,,,,{ bonus bLuk,1; },{},{}
4198,Maya_Puple_Card,Maya Purple Card,6,20,,10,,,,,,,,769,,,,,{ bonus bIntravision; },{},{}
4199,Merman_Card,Merman Card,6,20,,10,,,,,,,,64,,,,,{ bonus bHPrecovRate,10; bonus bSPrecovRate,10; },{},{}
4200,Megalith_Card,Megalith Card,6,20,,10,,,,,,,,64,,,,,{ if(getrefine()<6) bonus bMdef,7; },{},{}
4201,Majoruros_Card,Majoruros Card,6,20,,10,,,,,,,,16,,,,,{ bonus2 bAddEffWhenHit,Eff_Stun,600; },{},{}
4202,Civil_Servant_Card,Mao Guai Card,6,20,,10,,,,,,,,2,,,,,{ bonus2 bAddEle,Ele_Ghost,20; },{},{}
4203,Mutant_Dragon_Card,Mutant Dragonoid Card,6,20,,10,,,,,,,,2,,,,,{ bonus bBaseAtk,15; bonus3 bAutoSpell,"MG_FIREBALL",3+7*(getskilllv("MG_FIREBALL")==10),50; },{},{}
4204,Mini_Demon_Card,Mini Demon Card,6,20,,10,,,,,,,,64,,,,,{ bonus2 bSubRace,RC_Brute,-20; bonus2 bExpAddRace,RC_Brute,10; },{},{}
4205,Mimic_Card,Mimic Card,6,20,,10,,,,,,,,136,,,,,{ bonus2 bAddMonsterDropItem,603,10; },{},{}
4206,Mystcase_Card,Myst Case Card,6,20,,10,,,,,,,,769,,,,,{ bonus2 bAddMonsterDropItem,644,30; },{},{}
4207,Mysteltainn_Card,Mysteltainn Card,6,20,,10,,,,,,,,32,,,,,{ bonus2 bSubSize,Size_Small,25; bonus bDef,1; },{},{}
4208,Miyabi_Ningyo_Card,Miyabi Doll Card,6,20,,10,,,,,,,,64,,,,,{ bonus bMaxSPrate,10; bonus2 bSkillAtk,"MG_FROSTDIVER",5; },{},{}
4209,Violy_Card,Violy Card,6,20,,10,,,,,,,,136,,,,,{ bonus3 bAutoSpell,"BA_FROSTJOKER",1+4*(getskilllv("BA_FROSTJOKER")==5),20; },{},{}
4210,Wander_Man_Card,Wanderer Card,6,20,,10,,,,,,,,4,,,,,{ if(!isequipped(4172,4257,4230,4272)) bonus3 bAutoSpell,"RG_INTIMIDATE",1,20; if(BaseClass==Job_Thief) bonus bFlee,20; },{},{}
4211,Vocal_Card,Vocal Card,6,20,,10,,,,,,,,4,,,,,{ bonus bMdef,3; },{},{}
4212,Bon_Gun_Card,Bongun Card,6,20,,10,,,,,,,,136,,,,,{ bonus3 bAutoSpell,"SM_BASH",1,20; bonus2 bAddSkillBlow,"SM_BASH",5; bonus2 bAddDefMonster,1026,-100; },{},{}
4213,Brilight_Card,Brilight Card,6,20,,10,,,,,,,,16,,,,,{ bonus2 bAddEffWhenHit,Eff_Silence,600; },{},{}
4214,Bloody_Murderer_Card,Bloody Murderer Card,6,20,,10,,,,,,,,2,,,,,{ bonus bCritAtkRate,10; bonus2 bCriticalAddRace,RC_Insect,7; },{},{}
4215,Blazzer_Card,Blazer Card,6,20,,10,,,,,,,,136,,,,,{ bonus2 bAddMonsterDropItemGroup,IG_Food,600; },{},{}
4216,Sasquatch_Card,Sasquatch Card,6,20,,10,,,,,,,,16,,,,,{ bonus2 bAddEffWhenHit,Eff_Freeze,600; },{},{}
4217,Live_Peach_Tree_Card,Enchanted Peach Tree Card,6,20,,10,,,,,,,,32,,,,,{ bonus3 bAutoSpell,"AL_HEAL",1+9*(getskilllv("AL_HEAL")==10),20; },{},{}
4218,Succubus_Card,Succubus Card,6,20,,10,,,,,,,,16,,,,,{ bonus bVit,-3; bonus bHPrecovRate,-20; bonus bMaxHP,1000; },{},{}
4219,Sageworm_Card,Sage Worm Card,6,20,,10,,,,,,,,136,,,,,{ bonus2 bAddMonsterDropItem,715,30; bonus2 bAddMonsterDropItem,716,30; bonus2 bAddMonsterDropItem,717,30; },{},{}
4220,Solider_Card,Solider Card,6,20,,10,,,,,,,,16,,,,,{ bonus bDef,2; bonus bMdef,2; },{},{}
4221,Skeleton_General_Card,Skeleton General Card,6,20,,10,,,,,,,,64,,,,,{ bonus2 bSubRace,RC_Insect,-20; bonus2 bExpAddRace,RC_Insect,10; },{},{}
4222,Skel_Prisoner_Card,Skeleton Prisoner Card,6,20,,10,,,,,,,,16,,,,,{ bonus2 bAddEffWhenHit,Eff_Sleep,300; },{},{}
4223,Stalactic_Golem_Card,Stalactic Golem Card,6,20,,10,,,,,,,,769,,,,,{ bonus bDef,1; bonus2 bResEff,Eff_Stun,2000; },{},{}
4224,Stem_Worm_Card,Stem Worm Card,6,20,,10,,,,,,,,136,,,,,{ bonus3 bAddMonsterDropItem,12032,RC_Brute,100; },{},{}
4225,Stone_Shooter_Card,Stone Shooter Card,6,20,,10,,,,,,,,2,,,,,{ bonus bBaseAtk,10; bonus bHit,10; },{},{}
4226,Sting_Card,Sting Card,6,20,,10,,,,,,,,32,,,,,{ bonus bDef,2; if(getrefine()>8) bonus bMdef,5; },{},{}
4227,Spring_Rabbit_Card,Spring Rabbit Card,6,20,,10,,,,,,,,136,,,,,{ bonus2 bAddItemGroupHealRate,IG_Meat,50; bonus3 bAddMonsterDropItem,517,RC_Brute,200; bonus3 bAddMonsterDropItem,528,RC_Brute,200; },{},{}
4228,Sleeper_Card,Sleeper Card,6,20,,10,,,,,,,,136,,,,,{ bonus3 bAddMonsterDropItem,12031,RC_Fish,100; },{},{}
4229,C_Tower_Manager_Card,Tower Keeper Card,6,20,,10,,,,,,,,769,,,,,{ bonus bInt,1; bonus bVariableCastrate,-5; },{},{}
4230,Shinobi_Card,Shinobi Card,6,20,,10,,,,,,,,136,,,,,{ bonus bAgi,1; bonus3 bAutoSpellWhenHit,"AS_CLOAKING",5,100; },{},{}
4231,Increase_Soil_Card,Mi Gao Card,6,20,,10,,,,,,,,32,,,,,{ bonus2 bSubRace2,RC2_Guardian,50; },{},{}
4232,Wild_Ginseng_Card,Hermit Plant Card,6,20,,10,,,,,,,,136,,,,,{ bonus2 bAddItemGroupHealRate,IG_Herb,50; bonus3 bAddMonsterDropItem,507,RC_Plant,300; bonus3 bAddMonsterDropItem,508,RC_Plant,200; bonus3 bAddMonsterDropItem,509,RC_Plant,100; },{},{}
4233,Baby_Leopard_Card,Baby Leopard Card,6,20,,10,,,,,,,,16,,,,,{ bonus bLuk,3; if(BaseClass==Job_Merchant) bonus bUnbreakableArmor; },{},{}
4234,Anolian_Card,Anolian Card,6,20,,10,,,,,,,,16,,,,,{ bonus3 bAutoSpellWhenHit,"AC_CONCENTRATION",1+9*(getskilllv("AC_CONCENTRATION")==10),30; },{},{}
4235,Cookie_XMAS_Card,Christmas Cookie Card,6,20,,10,,,,,,,,64,,,,,{ bonus2 bSubRace,RC_Angel,-20; bonus2 bExpAddRace,RC_Angel,10; },{},{}
4236,Amon_Ra_Card,Amon Ra Card,6,20,,10,,,,,,,,64,,,,,{ bonus bAllStats,1; bonus3 bAutoSpellWhenHit,"PR_KYRIE",10,(30+70*(readparam(bInt)>=99)); },{},{}
4237,Owl_Duke_Card,Owl Duke Card,6,20,,10,,,,,,,,136,,,,,{ bonus3 bAutoSpell,"PR_IMPOSITIO",3,3; },{},{}
4238,Owl_Baron_Card,Owl Baron Card,6,20,,10,,,,,,,,136,,,,,{ bonus3 bAutoSpell,"PR_LEXAETERNA",1,30; },{},{}
4239,Iron_Fist_Card,Iron Fist Card,6,20,,10,,,,,,,,64,,,,,{ bonus2 bSubRace,RC_Formless,-20; bonus2 bExpAddRace,RC_Formless,10; },{},{}
4240,Arclouse_Card,Arclouze Card,6,20,,10,,,,,,,,32,,,,,{ if(getrefine()<6) { bonus bDef,2; bonus bMdef,3; } },{},{}
4241,Archangeling_Card,Arc Angeling Card,6,20,,10,,,,,,,,769,,,,,{ bonus bMaxHP,300; if(readparam(bLuk)>=77) { bonus bHPrecovRate,100; bonus bSPrecovRate,100; } },{},{}
4242,Apocalips_Card,Apocalipse Card,6,20,,10,,,,,,,,16,,,,,{ bonus bVit,2; if(getrefine()>8) bonus bMaxHP,800; },{},{}
4243,Antonio_Card,Antonio Card,6,20,,10,,,,,,,,16,,,,,{ bonus3 bAutoSpellWhenHit,"AL_TELEPORT",1,500; },{},{}
4244,Alarm_Card,Alarm Card,6,20,,10,,,,,,,,64,,,,,{ bonus3 bAutoSpellWhenHit,"MG_SIGHT",1,200; bonus bMaxHP,300; bonus bVit,1; },{},{}
4245,Am_Mut_Card,Am Mut Card,6,20,,10,,,,,,,,64,,,,,{ bonus2 bSubRace,RC_DemiHuman,-20; bonus2 bSubRace,RC_Player,-20; bonus2 bExpAddRace,RC_DemiHuman,10; },{},{}
4246,Assulter_Card,Assaulter Card,6,20,,10,,,,,,,,2,,,,,{ bonus bCritAtkRate,10; bonus2 bCriticalAddRace,RC_DemiHuman,7; bonus2 bCriticalAddRace,RC_Player,7; },{},{}
4247,Aster_Card,Aster Card,6,20,,10,,,,,,,,2,,,,,{ bonus bBaseAtk,5; bonus2 bAddDamageClass,1074,30; },{},{}
4248,Ancient_Mummy_Card,Ancient Mummy Card,6,20,,10,,,,,,,,32,,,,,{ bonus3 bAutoSpellWhenHit,"AL_CRUCIS",5,30; },{},{}
4249,Ancient_Worm_Card,Ancient Worm Card,6,20,,10,,,,,,,,64,,,,,{ bonus2 bSubRace,RC_Demon,-20; bonus2 bExpAddRace,RC_Demon,10; },{},{}
4250,Executioner_Card,Executioner Card,6,20,,10,,,,,,,,32,,,,,{ bonus2 bSubSize,Size_Large,25; bonus bDef,1; },{},{}
4251,Elder_Card,Elder Card,6,20,,10,,,,,,,,2,,,,,{ bonus2 bAddRace2,RC2_Guardian,40; },{},{}
4252,Alligator_Card,Alligator Card,6,20,,10,,,,,,,,136,,,,,{ bonus bLongAtkDef,5; },{},{}
4253,Alice_Card,Alice Card,6,20,,10,,,,,,,,32,,,,,{ bonus2 bSubClass,Class_Boss,40; bonus2 bSubClass,Class_Normal,-40; },{},{}
4254,Tirfing_Card,Ogretooth Card,6,20,,10,,,,,,,,32,,,,,{ bonus2 bSubSize,Size_Medium,25; bonus bDef,1; },{},{}
4255,Orc_Lady_Card,Orc Lady Card,6,20,,10,,,,,,,,2,,,,,{ bonus2 bAddRace2,RC2_Orc,30; },{},{}
4256,Orc_Archer_Card,Orc Archer Card,6,20,,10,,,,,,,,136,,,,,{ bonus3 bAddMonsterDropItem,12034,RC_DemiHuman,100; },{},{}
4257,Wild_Rose_Card,Wild Rose Card,6,20,,10,,,,,,,,64,,,,,{ bonus bAgi,1; if(BaseClass==Job_Thief) bonus bFlee2,5; },{},{}
4258,Wicked_Nymph_Card,Evil Nymph Card,6,20,,10,,,,,,,,769,,,,,{ bonus bInt,1; bonus bMaxSP,50; },{},{}
4259,Wooden_Golem_Card,Wooden Golem Card,6,20,,10,,,,,,,,16,,,,,{ bonus bDef,1; bonus bHPrecovRate,30; },{},{}
4260,Wootan_Shooter_Card,Wootan Shooter Card,6,20,,10,,,,,,,,769,,,,,{ bonus bDef,1; bonus2 bResEff,Eff_Confusion,2000; },{},{}
4261,Wootan_Fighter_Card,Wootan Fighter Card,6,20,,10,,,,,,,,769,,,,,{ bonus bDef,1; bonus2 bResEff,Eff_Bleeding,2000; },{},{}
4262,Evil_Cloud_Hermit_Card,Cloud Hermit Card,6,20,,10,,,,,,,,136,,,,,{ bonus3 bAddMonsterDropItem,12029,RC_Plant,100; },{},{}
4263,Incant_Samurai_Card,Samurai Spector Card,6,20,,10,,,,,,,,2,,,,,{ bonus bIgnoreDefClass,Class_Normal; bonus bHPrecovRate,-100; bonus2 bHPLossRate,666,10000; },{},{ if((Hp<=999) && !getmapflag(strcharinfo(3),mf_pvp) && !getmapflag(strcharinfo(3),mf_pvp_noparty) && !getmapflag(strcharinfo(3),mf_pvp_noguild)) { heal(1-Hp),0; } else { heal -999,0; } }
4264,Wind_Ghost_Card,Wind Ghost Card,6,20,,10,,,,,,,,136,,,,,{ bonus3 bAutoSpell,"WZ_JUPITEL",3+7*(getskilllv("WZ_JUPITEL")==10),20; },{},{}
4265,Li_Me_Mang_Ryang_Card,Jing Guai Card,6,20,,10,,,,,,,,136,,,,,{ bonus3 bAddMonsterDropItem,12033,RC_Angel,100; },{},{}
4266,Eclipse_Card,Eclipse Card,6,20,,10,,,,,,,,4,,,,,{ bonus bVit,1; },{},{}
4267,Explosion_Card,Explosion Card,6,20,,10,,,,,,,,64,,,,,{ bonus2 bSubRace,RC_Dragon,-20; bonus2 bExpAddRace,RC_Dragon,10; },{},{}
4268,Injustice_Card,Injustice Card,6,20,,10,,,,,,,,2,,,,,{ bonus3 bAutoSpell,"AS_SONICBLOW",1,50; },{},{}
4269,Incubus_Card,Incubus Card,6,20,,10,,,,,,,,769,,,,,{ bonus bInt,-3; bonus bSPrecovRate,-20; bonus bMaxSP,150; },{},{}
4270,Giant_Spider_Card,Giant Spider Card,6,20,,10,,,,,,,,16,,,,,{ bonus2 bAddEffWhenHit,Eff_Poison,600; },{},{}
4271,Giant_Honet_Card,Giant Hornet Card,6,20,,10,,,,,,,,769,,,,,{ bonus2 bSubEle,Ele_Wind,10; bonus3 bAddMonsterDropItem,992,RC_Insect,100; },{},{}
4272,Dancing_Dragon_Card,Zhu Po Long Card,6,20,,10,,,,,,,,136,,,,,{ bonus bAgi,1; bonus bCritical,3; },{},{}
4273,Shellfish_Card,Shell Fish Card,6,20,,10,,,,,,,,2,,,,,{ bonus bBaseAtk,5; bonus2 bAddDamageClass,1073,30; },{},{}
4274,Zombie_Master_Card,Zombie Master Card,6,20,,10,,,,,,,,2,,,,,{ bonus2 bSPGainRace,RC_Undead,5; },{},{ heal 0,-5; }
4275,Zombie_Prisoner_Card,Zombie Prisoner Card,6,20,,10,,,,,,,,64,,,,,{ bonus2 bSubRace,RC_Undead,-20; bonus2 bExpAddRace,RC_Undead,10; },{},{}
4276,Lord_Of_Death_Card,Lord of The Dead Card,6,20,,10,,,,,,,,2,,,,,{ bonus3 bAddEff,Eff_Stun,500,ATF_SHORT; bonus3 bAddEff,Eff_Curse,500,ATF_SHORT; bonus3 bAddEff,Eff_Silence,500,ATF_SHORT; bonus3 bAddEff,Eff_Poison,500,ATF_SHORT; bonus3 bAddEff,Eff_Bleeding,500,ATF_SHORT; bonus2 bComaClass,Class_Normal,1; },{},{}
4277,Zherlthsh_Card,Zealotus Card,6,20,,10,,,,,,,,32,,,,,{ bonus bLuk,2; bonus2 bSkillAtk,"BA_MUSICALSTRIKE",10; bonus2 bSkillAtk,"DC_THROWARROW",10; },{},{}
4278,Gibbet_Card,Gibbet Card,6,20,,10,,,,,,,,769,,,,,{ if(getrefine()<6) bonus bMdef,5; },{},{}
4279,Deleter_Card,Earth Deleter Card,6,20,,10,,,,,,,,16,,,,,{ bonus bSPrecovRate,-100; bonus bSPGainValue,10; },{},{ heal 0,-100; }
4280,Geographer_Card,Geographer Card,6,20,,10,,,,,,,,16,,,,,{ bonus3 bAutoSpellWhenHit,"AL_BLESSING",2+8*(getskilllv("AL_BLESSING")==10),30; },{},{}
4281,Zipper_Bear_Card,Zipper Bear Card,6,20,,10,,,,,,,,2,,,,,{ bonus bBaseAtk,30; bonus bSPDrainValue,-1; if(BaseClass==Job_Merchant) bonus bUnbreakableWeapon; },{},{}
4282,Tengu_Card,Tengu Card,6,20,,10,,,,,,,,136,,,,,{ bonus2 bAddMonsterDropItemGroup,IG_Recovery,600; },{},{}
4283,Greatest_General_Card,Greatest General Card,6,20,,10,,,,,,,,136,,,,,{ bonus3 bAutoSpell,"MO_CALLSPIRITS",5,2+18*(BaseClass==Job_Acolyte); },{},{}
4284,Chepet_Card,Chepet Card,6,20,,10,,,,,,,,2,,,,,{ bonus4 bAutoSpell,"AL_HEAL",5,50,1; },{},{}
4285,Choco_Card,Choco Card,6,20,,10,,,,,,,,4,,,,,{ bonus bFlee2,5; bonus bFlee,10; },{},{}
4286,Karakasa_Card,Karakasa Card,6,20,,10,,,,,,,,16,,,,,{ bonus2 bAddEffWhenHit,Eff_Confusion,300+600*(readparam(bStr)>=77); },{},{}
4287,Kapha_Card,Kapha Card,6,20,,10,,,,,,,,4,,,,,{ if(getrefine()<6) bonus bMdef,8; },{},{}
4288,Carat_Card,Carat Card,6,20,,10,,,,,,,,769,,,,,{ bonus bInt,2; if(getrefine()>8) bonus bMaxSP,150; },{},{}
4289,Caterpillar_Card,Caterpillar Card,6,20,,10,,,,,,,,2,,,,,{ bonus2 bSPGainRace,RC_Plant,5; },{},{ heal 0,-5; }
4290,Cat_O_Nine_Tail_Card,Cat O' Nine Tails Card,6,20,,10,,,,,,,,64,,,,,{ bonus bMdef,3; bonus bMagicDamageReturn,5; },{},{}
4291,Kobold_Leader_Card,Kobold Leader Card,6,20,,10,,,,,,,,2,,,,,{ bonus2 bAddRace2,RC2_Kobold,30; },{},{}
4292,Kobold_Archer_Card,Kobold Archer Card,6,20,,10,,,,,,,,2,,,,,{ bonus bCritAtkRate,10; bonus2 bCriticalAddRace,RC_Plant,7; },{},{}
4293,Cookie_Card,Cookie Card,6,20,,10,,,,,,,,136,,,,,{ bonus bLuk,2; bonus2 bSkillAtk,"AL_HOLYLIGHT",10; },{},{}
4294,Quve_Card,Quve Card,6,20,,10,,,,,,,,136,,,,,{ if(BaseJob==Job_Novice||BaseJob==Job_SuperNovice) bonus3 bAutoSpellWhenHit,"AL_INCAGI",1,100; },{},{}
4295,Kraben_Card,Kraben Card,6,20,,10,,,,,,,,16,,,,,{ bonus2 bAddEffWhenHit,Eff_Blind,600; },{},{}
4296,Cramp_Card,Cramp Card,6,20,,10,,,,,,,,769,,,,,{ bonus2 bGetZenyNum,500,1; },{},{}
4297,Cruiser_Card,Cruiser Card,6,20,,10,,,,,,,,2,,,,,{ bonus bCritAtkRate,10; bonus2 bCriticalAddRace,RC_Brute,7; },{},{}
4298,Cremy_Fear_Card,Creamy Fear Card,6,20,,10,,,,,,,,16,,,,,{ bonus2 bAddEffWhenHit,Eff_Confusion,600; },{},{}
4299,Clock_Card,Clock Card,6,20,,10,,,,,,,,16,,,,,{ bonus3 bAutoSpellWhenHit,"CR_AUTOGUARD",3+7*(getskilllv("CR_AUTOGUARD")==10),30; },{},{ sc_end SC_AUTOGUARD; }
4300,Chimera_Card,Chimera Card,6,20,,10,,,,,,,,16,,,,,{ bonus2 bAddEffWhenHit,Eff_Poison,300+600*(BaseJob==Job_Assassin); },{},{}
4301,Killer_Mantis_Card,Killer Mantis Card,6,20,,10,,,,,,,,16,,,,,{ bonus2 bAddEffWhenHit,Eff_Bleeding,600; },{},{}
4302,Tao_Gunka_Card,Tao Gunka Card,6,20,,10,,,,,,,,16,,,,,{ bonus bMaxHPrate,100; bonus bDefRate,-50; bonus bMdefRate,-50; },{},{}
4303,Whisper_Boss_Card,Giant Whisper Card,6,20,,10,,,,,,,,4,,,,,{ bonus bFlee,10; if(readparam(bStr)>=80) bonus bBaseAtk,20; if(readparam(bVit)>=80) bonus bMaxHPrate,3; if(readparam(bLuk)>=80) bonus bCritical,3; },{},{}
4304,Tamruan_Card,Tamruan Card,6,20,,10,,,,,,,,32,,,,,{ bonus bDef,2; bonus2 bSkillAtk,"CR_SHIELDCHARGE",10; bonus2 bSkillAtk,"CR_SHIELDBOOMERANG",10; },{},{}
4305,Turtle_General_Card,Turtle General Card,6,20,,10,,,,,,,,2,,,,,{ bonus2 bAddClass,Class_All,20; bonus3 bAutoSpell,"SM_MAGNUM",10,30; },{},{}
4306,Toad_Card,Toad Card,6,20,,10,,,,,,,,4,,,,,{ bonus bFlee2,1; },{},{}
4307,Kind_Of_Beetle_Card,Beetle King Card,6,20,,10,,,,,,,,2,,,,,{ bonus2 bSPGainRace,RC_Fish,5; },{},{ heal 0,-5; }
4308,Tri_Joint_Card,Tri Joint Card,6,20,,10,,,,,,,,2,,,,,{ bonus2 bSPGainRace,RC_Formless,5; },{},{ heal 0,-5; }
4309,Parasite_Card,Parasite Card,6,20,,10,,,,,,,,32,,,,,{ bonus bDef,1; bonus2 bSubRace,RC_Formless,5; },{},{}
4310,Panzer_Goblin_Card,Panzer Goblin Card,6,20,,10,,,,,,,,2,,,,,{ bonus bCritAtkRate,10; bonus2 bCriticalAddRace,RC_Demon,7; },{},{}
4311,Permeter_Card,Permeter Card,6,20,,10,,,,,,,,769,,,,,{ bonus2 bSubEle,Ele_Dark,15; bonus2 bSubEle,Ele_Undead,15; },{},{}
4312,Fur_Seal_Card,Seal Card,6,20,,10,,,,,,,,2,,,,,{ bonus bFlee,3; bonus bHit,10; if(BaseClass==Job_Acolyte) { bonus2 bCriticalAddRace,RC_Undead,9; bonus2 bCriticalAddRace,RC_Demon,9; } },{},{}
4313,Punk_Card,Punk Card,6,20,,10,,,,,,,,4,,,,,{ bonus4 bAutoSpellWhenHit,"WZ_QUAGMIRE",1+4*(getskilllv("WZ_QUAGMIRE")==5),50,0; },{},{}
4314,Penomena_Card,Penomena Card,6,20,,10,,,,,,,,32,,,,,{ bonus2 bSubRace,RC_Formless,30; },{},{}
4315,Pest_Card,Pest Card,6,20,,10,,,,,,,,16,,,,,{ bonus2 bAddEffWhenHit,Eff_Stone,300+600*(readparam(bInt)>=77); },{},{}
4316,Fake_Angel_Card,False Angel Card,6,20,,10,,,,,,,,2,,,,,{ bonus2 bSPGainRace,RC_Angel,5; },{},{ heal 0,-5; }
4317,Mobster_Card,Mobster Card,6,20,,10,,,,,,,,2,,,,,{ bonus bCritAtkRate,15; if(BaseClass==Job_Thief) bonus bCritical,4; },{},{}
4318,Knight_Windstorm_Card,Stormy Knight Card,6,20,,10,,,,,,,,2,,,,,{ bonus3 bAutoSpell,"WZ_STORMGUST",1,20; bonus2 bAddEff,Eff_Freeze,2000; },{},{}
4319,Freezer_Card,Freezer Card,6,20,,10,,,,,,,,64,,,,,{ bonus bMaxHP,300; if(getrefine()>=9) bonus2 bSkillAtk,"SM_BASH",10; },{},{}
4320,Bloody_Knight_Card,Bloody Knight Card,6,20,,10,,,,,,,,2,,,,,{ bonus3 bAutoSpell,"WZ_METEOR",1,20; },{},{}
4321,Hylozoist_Card,Hylozoist Card,6,20,,10,,,,,,,,136,,,,,{ bonus bClassChange,100; },{},{}
4322,High_Orc_Card,High Orc Card,6,20,,10,,,,,,,,32,,,,,{ bonus bDef,1; bonus bShortWeaponDamageReturn,5; },{},{}
4323,Garm_Baby_Card,Hatii Babe Card,6,20,,10,,,,,,,,2,,,,,{ bonus3 bAutoSpell,"MG_FROSTDIVER",3,50; },{},{}
4324,Garm_Card,Hatii Card,6,20,,10,,,,,,,,16,,,,,{ bonus2 bAddEffWhenHit,Eff_Freeze,5000; },{},{}
4325,Harpy_Card,Harpy Card,6,20,,10,,,,,,,,4,,,,,{ bonus2 bSubEle,Ele_Neutral,15; bonus2 bSkillAtk,"MG_NAPALMBEAT",5; },{},{}
4326,See_Otter_Card,Sea-Otter Card,6,20,,10,,,,,,,,136,,,,,{ bonus2 bAddItemGroupHealRate,IG_Fish,50; bonus3 bAddMonsterDropItem,551,RC_Fish,300; bonus3 bAddMonsterDropItem,544,RC_Fish,300; },{},{}
4327,Blood_Butterfly_Card,Bloody Butterfly Card,6,20,,10,,,,,,,,136,,,,,{ bonus bVariableCastrate,30; bonus bNoCastCancel; bonus2 bSkillAtk,"MG_FIREWALL",5; },{},{}
4328,Hyegun_Card,Yao Jun Card,6,20,,10,,,,,,,,4,,,,,{ bonus bFlee,15; bonus bCritical,1; },{},{}
4329,Phendark_Card,Phendark Card,6,20,,10,,,,,,,,2,,,,,{ bonus2 bSPGainRace,RC_DemiHuman,5; bonus2 bSPGainRace,RC_Player,5; },{},{ heal 0,-5; }
4330,Dark_Snake_Lord_Card,Evil Snake Lord Card,6,20,,10,,,,,,,,769,,,,,{ bonus bInt,3; bonus2 bResEff,Eff_Blind,10000; bonus2 bResEff,Eff_Curse,10000; },{},{}
4331,Heater_Card,Heater Card,6,20,,10,,,,,,,,136,,,,,{ bonus bCritical,3; if(BaseClass==Job_Swordman) bonus bFlee2,3; },{},{}
4332,Waste_Stove_Card,Waste Stove Card,6,20,,10,,,,,,,,16,,,,,{ bonus bBaseAtk,5; bonus bInt,1; },{},{}
4333,Venomous_Card,Venomous Card,6,20,,10,,,,,,,,16,,,,,{ bonus3 bAddEffWhenHit,Eff_Poison,3000,ATF_TARGET|ATF_SELF; },{},{}
4334,Noxious_Card,Noxious Card,6,20,,10,,,,,,,,4,,,,,{ bonus bLongAtkDef,10; bonus2 bSubEle,Ele_Neutral,10; },{},{}
4335,Pitman_Card,Pitman Card,6,20,,10,,,,,,,,2,,,,,{ bonus2 bSkillAtk,"WZ_EARTHSPIKE",5; bonus2 bSkillAtk,"WZ_HEAVENDRIVE",5; },{},{ heal 0,-50; }
4336,Ungoliant_Card,Ungoliant Card,6,20,,10,,,,,,,,769,,,,,{ bonus bHPrecovRate,10; bonus2 bResEff,Eff_Bleeding,10000; },{},{}
4337,Porcellio_Card,Porcellio Card,6,20,,10,,,,,,,,16,,,,,{ bonus bBaseAtk,25; bonus bDef,-5; },{},{}
4338,Obsidian_Card,Obsidian Card,6,20,,10,,,,,,,,16,,,,,{ bonus bVit,readparam(bDex)/18; },{},{}
4339,Mineral_Card,Mineral Card,6,20,,10,,,,,,,,16,,,,,{ bonus bBaseAtk,-25; bonus bDef,3; },{},{}
4340,Teddy_Bear_Card,Teddy Bear Card,6,20,,10,,,,,,,,32,,,,,{ bonus2 bSubRace,RC_Undead,30; },{},{}
4341,Metaling_Card,Metaling Card,6,20,,10,,,,,,,,2,,,,,{ bonus3 bAutoSpell,"RG_STRIPWEAPON",1,50; },{},{}
4342,Rsx_0806_Card,RSX-0806 Card,6,20,,10,,,,,,,,16,,,,,{ bonus bVit,3; bonus bUnbreakableArmor; bonus bNoKnockback; },{},{}
4343,Mole_Card,Holden Card,6,20,,10,,,,,,,,769,,,,,{ bonus bLuk,2; },{},{}
4344,Anopheles_Card,Anopheles Card,6,20,,10,,,,,,,,136,,,,,{ bonus3 bAddMonsterDropItem,12058,RC_Insect,50; },{},{}
4345,Hill_Wind_Card,Hill Wind Card,6,20,,10,,,,,,,,2,,,,,{ bonus2 bSkillAtk,"MG_THUNDERSTORM",5; bonus2 bSkillAtk,"WZ_JUPITEL",5; bonus2 bSkillAtk,"WZ_VERMILION",5; },{},{ heal 0,-50; }
4346,Ygnizem_Card,Egnigem Cenia Card,6,20,,10,,,,,,,,16,,,,,{ bonus bStr,readparam(bInt)/18; },{},{}
4347,Armaia_Card,Armeyer Dinze Card,6,20,,10,,,,,,,,136,,,,,{ bonus3 bAddMonsterDropItem,12053,RC_Fish,50; },{},{}
4348,Whikebain_Card,Wickebine Tres Card,6,20,,10,,,,,,,,136,,,,,{ bonus3 bAutoSpell,"RG_STRIPARMOR",1,50; },{},{}
4349,Erend_Card,Errende Ebecee Card,6,20,,10,,,,,,,,136,,,,,{ bonus4 bAutoSpellWhenHit,"AL_PNEUMA",1,50,0; },{},{}
4350,Rawrel_Card,Laurell Weinder Card,6,20,,10,,,,,,,,2,,,,,{ bonus2 bSkillAtk,"WZ_FROSTNOVA",3; bonus2 bSkillAtk,"WZ_STORMGUST",3; },{},{ heal 0,-50; }
4351,Kavac_Card,Kavach Icarus Card,6,20,,10,,,,,,,,4,,,,,{ if(getrefine()<=4) { bonus bFlee,20; bonus bFlee2,1; } else { bonus bFlee,10; } },{},{}
4352,B_Ygnizem_Card,General Egnigem Cenia Card,6,20,,10,,,,,,,,64,,,,,{ bonus bMaxHPrate,10; bonus bMaxSPrate,10; bonus2 bHPRegenRate,50,10000; bonus2 bSPRegenRate,10,10000; },{},{}
4353,Removal_Card,Remover Card,6,20,,10,,,,,,,,16,,,,,{ bonus bMaxHP,800-40*getrefine(); bonus bHPrecovRate,10; },{},{}
4354,Gemini_Card,Gemini-S58 Card,6,20,,10,,,,,,,,769,,,,,{ if(readparam(bAgi)>=90) { bonus2 bResEff,Eff_Silence,3000; bonus2 bResEff,Eff_Stun,3000; } if(readparam(bVit)>=80) { bonus2 bResEff,Eff_Stone,5000; bonus2 bResEff,Eff_Sleep,5000; } },{},{}
4355,Gremlin_Card,Gremlin Card,6,20,,10,,,,,,,,136,,,,,{ bonus3 bAddMonsterDropItem,12043,RC_Brute,50; },{},{}
4356,Beholder_Card,Beholder Card,6,20,,10,,,,,,,,136,,,,,{ skill "SA_CASTCANCEL",1; },{},{}
4357,B_Seyren_Card,Lord Knight Card,6,20,,10,,,,,,,,769,,,,,{ skill "LK_BERSERK",1; bonus bMaxHPrate,-50; },{},{}
4358,Seyren_Card,Seyren Windsor Card,6,20,,10,,,,,,,,769,,,,,{ bonus bStr,getrefine()-6; },{},{}
4359,B_Eremes_Card,Assassin Cross Card,6,20,,10,,,,,,,,4,,,,,{ skill "AS_CLOAKING",3; },{},{ sc_end SC_CLOAKING; }
4360,Eremes_Card,Eremes Guile Card,6,20,,10,,,,,,,,2,,,,,{ bonus2 bCriticalAddRace,RC_DemiHuman,10; bonus2 bCriticalAddRace,RC_Player,10; },{},{}
4361,B_Harword_Card,MasterSmith Card,6,20,,10,,,,,,,,2,,,,,{ bonus bBreakWeaponRate,1000; bonus bBreakArmorRate,700; },{},{}
4362,Harword_Card,Howard Alt-Eisen Card,6,20,,10,,,,,,,,2,,,,,{ bonus bAspdRate,-5; bonus bHit,30; },{},{}
4363,B_Magaleta_Card,High Priest Card,6,20,,10,,,,,,,,16,,,,,{ bonus5 bAutoSpellWhenHit,"HP_ASSUMPTIO",5,50,BF_WEAPON|BF_MAGIC,0; },{},{}
4364,Magaleta_Card,Margaretha Sorin Card,6,20,,10,,,,,,,,769,,,,,{ bonus bInt,1; bonus5 bAutoSpellWhenHit,"PR_LEXDIVINA",5,150,BF_MAGIC,1; },{},{}
4365,B_Katrinn_Card,High Wizard Card,6,20,,10,,,,,,,,769,,,,,{ bonus2 bIgnoreMdefClassRate,Class_Normal,100; bonus bVariableCastrate,100; bonus bSPrecovRate,-100; },{},{ heal 0,-2000; }
4366,Katrinn_Card,Kathryne Keyron Card,6,20,,10,,,,,,,,769,,,,,{ .@r = getrefine(); bonus bVariableCastrate,.@r*-1; if(.@r>=9) { bonus bMatkRate,2; } },{},{}
4367,B_Shecil_Card,Sniper Card,6,20,,10,,,,,,,,2,,,,,{ bonus2 bHPDrainRate,100,20; bonus bHPrecovRate,-10; },{},{}
4368,Shecil_Card,Cecil Damon Card,6,20,,10,,,,,,,,2,,,,,{ bonus bAspdRate,5; bonus bHit,-30; },{},{}
4369,Venatu_Card,Venatu Card,6,20,,10,,,,,,,,16,,,,,{ bonus bLuk,readparam(bAgi)/18; },{},{}
4370,Dimik_Card,Dimik Card,6,20,,10,,,,,,,,16,,,,,{ bonus bVit,getrefine()-5; },{},{}
4371,Archdam_Card,Archdam Card,6,20,,10,,,,,,,,16,,,,,{ bonus bBaseAtk,10; bonus bVariableCastrate,20; },{},{}
4372,Bacsojin_Card,White Lady Card,6,20,,10,,,,,,,,769,,,,,{ bonus bHealPower,30; bonus bUseSPrate,15; },{},{}
4373,Chung_E_Card,Green Maiden Card,6,20,,10,,,,,,,,4,,,,,{ .@r = getrefine(); bonus bLuk,.@r-5; bonus bCritical,.@r; },{},{}
4374,Apocalips_H_Card,Vesper Card,6,20,,10,,,,,,,,769,,,,,{ bonus bDex,2; bonus2 bIgnoreMdefClassRate,Class_Boss,30; },{},{}
4375,Orc_Baby_Card,Orc Baby Card,6,20,,10,,,,,,,,4,,,,,{ .@i = (getrefine()>=9?15:10); bonus2 bSubEle,Ele_Neutral,.@i; bonus bFlee,.@i; },{},{}
4376,Lady_Tanee_Card,Lady Tanee Card,6,20,,10,,,,,,,,64,,,,,{ bonus bMaxHPrate,-40; bonus bMaxSPrate,50; bonus2 bAddMonsterDropItem,513,200; bonus2 bAddItemHealRate,513,100; },{},{}
4377,Green_Iguana_Card,Grove Card,6,20,,10,,,,,,,,136,,,,,{ bonus3 bAddMonsterDropItem,12063,RC_Formless,50; },{},{}
4378,Acidus_Card,Gold Acidus Card,6,20,,10,,,,,,,,64,,,,,{ if(getrefine()<=4) { bonus bMaxHPrate,8; bonus bMaxSPrate,8; bonus bHPrecovRate,5; bonus bSPrecovRate,5; } else { bonus bMaxHPrate,4; bonus bMaxSPrate,4; } },{},{}
4379,Acidus__Card,Blue Acidus Card,6,20,,10,,,,,,,,769,,,,,{ if(getrefine()<=4) { bonus bSPrecovRate,5; bonus bMaxSP,80; } else { bonus bMaxSP,40; } },{},{}
4380,Ferus_Card,Red Ferus Card,6,20,,10,,,,,,,,2,,,,,{ bonus2 bSkillAtk,"WZ_FIREPILLAR",5; bonus2 bSkillAtk,"WZ_METEOR",5; },{},{ heal 0,-50; }
4381,Ferus__Card,Green Ferus Card,6,20,,10,,,,,,,,64,,,,,{ bonus bVit,1; bonus bMaxHPrate,10; },{},{}
4382,Novus__Card,Yellow Novus Card,6,20,,10,,,,,,,,16,,,,,{ bonus bMaxHP,500; bonus bHPrecovRate,10; },{},{}
4383,Novus_Card,Red Novus Card,6,20,,10,,,,,,,,16,,,,,{ bonus3 bAddEffWhenHit,Eff_Confusion,3000,ATF_TARGET|ATF_SELF; },{},{}
4384,Hydro_Card,Hydrolancer Card,6,20,,10,,,,,,,,136,,,,,{ bonus3 bAutoSpell,"SA_SPELLBREAKER",1,100; },{},{}
4385,Dragon_Egg_Card,Dragon Egg Card,6,20,,10,,,,,,,,136,,,,,{ bonus3 bAddMonsterDropItem,12048,RC_Dragon,50; },{},{}
4386,Detale_Card,Detardeurus Card,6,20,,10,,,,,,,,16,,,,,{ bonus bMdef,-20; bonus2 bResEff,Eff_Freeze,10000; bonus5 bAutoSpellWhenHit,"SA_LANDPROTECTOR",1,70,BF_MAGIC,0; },{},{}
4387,Ancient_Mimic_Card,Ancient Mimic Card,6,20,,10,,,,,,,,16,,,,,{ bonus bAgi,readparam(bLuk)/18; },{},{}
4388,Deathword_Card,Death Word Card,6,20,,10,,,,,,,,2,,,,,{ bonus2 bSkillAtk,"MG_NAPALMBEAT",5; bonus2 bSkillAtk,"MG_SOULSTRIKE",5; bonus2 bSkillAtk,"HW_NAPALMVULCAN",5; },{},{ heal 0,-50; }
4389,Plasma_Card,Plasma Card,6,20,,10,,,,,,,,136,,,,,{ bonus2 bAddMonsterDropItem,12118,50; bonus2 bAddMonsterDropItem,12119,50; bonus2 bAddMonsterDropItem,12120,50; bonus2 bAddMonsterDropItem,12121,50; },{},{}
4390,Breeze_Card,Breeze Card,6,20,,10,,,,,,,,2,,,,,{ bonus bBaseAtk,5; bonus2 bAddEff,Eff_Bleeding,500; },{},{}
4391,Retribution_Card,Baroness of Retribution Card,6,20,,10,,,,,,,,136,,,,,{ bonus3 bAddMonsterDropItem,12068,RC_Angel,50; },{},{}
4392,Observation_Card,Dame of Sentinel Card,6,20,,10,,,,,,,,16,,,,,{ bonus bDex,readparam(bVit)/18; },{},{}
4393,Shelter_Card,Mistress of Shelter Card,6,20,,10,,,,,,,,16,,,,,{ bonus bInt,readparam(bStr)/18; },{},{}
4394,Solace_Card,Lady Solace Card,6,20,,10,,,,,,,,2,,,,,{ if(BaseJob==Job_Priest) bonus3 bAutoSpell,"CR_GRANDCROSS",5,20; },{},{}
4395,Tha_Maero_Card,Maero of Thanatos Card,6,20,,10,,,,,,,,2,,,,,{ bonus bBaseAtk,5; bonus3 bAutoSpell,"AL_DECAGI",3,50; },{},{}
4396,Tha_Odium_Card,Odium of Thanatos Card,6,20,,10,,,,,,,,64,,,,,{ bonus bAgi,getrefine()-5; },{},{}
4397,Tha_Despero_Card,Despero of Thanatos Card,6,20,,10,,,,,,,,32,,,,,{ bonus bInt,getrefine()-6; },{},{}
4398,Tha_Dolor_Card,Dolor of Thanatos Card,6,20,,10,,,,,,,,2,,,,,{ bonus2 bMagicAddRace,RC_Angel,10; },{},{}
4399,Thanatos_Card,Memory of Thanatos Card,6,20,,10,,,,,,,,2,,,,,{ bonus bDefRatioAtkClass,Class_All; bonus bSPDrainValue,-1; bonus bDef,-30; bonus bFlee,-30; },{},{}
4400,Aliza_Card,Aliza Card,6,20,,10,,,,,,,,16,,,,,{ bonus3 bAutoSpellWhenHit,"DC_WINKCHARM",1,50+50*(BaseJob==Job_Dancer); },{},{}
4401,Alicel_Card,Alicel Card,6,20,,10,,,,,,,,16,,,,,{ bonus bFlee,10; bonus bDef,-5; },{},{}
4402,Aliot_Card,Aliot Card,6,20,,10,,,,,,,,4,,,,,{ if(BaseClass==Job_Swordman||BaseClass==Job_Merchant||BaseClass==Job_Thief) { bonus bStr,2; bonus bMaxHPrate,5; } if(BaseClass==Job_Mage||BaseClass==Job_Archer||BaseClass==Job_Acolyte) { bonus bInt,2; bonus bMaxSPrate,5; } },{},{}
4403,Kiel_Card,Kiel-D-01 Card,6,20,,10,,,,,,,,769,,,,,{ bonus bDelayRate,-30; },{},{}
4404,Skogul_Card,Skogul Card,6,20,,10,,,,,,,,16,,,,,{ bonus3 bAddEffWhenHit,Eff_Bleeding,3000,ATF_TARGET|ATF_SELF; },{},{}
4405,Frus_Card,Frus Card,6,20,,10,,,,,,,,16,,,,,{ bonus bMagicDamageReturn,getrefine()*2; if(BaseClass==Job_Mage) bonus bMdef,3; },{},{}
4406,Skeggiold_Card,Skeggiold Card,6,20,,10,,,,,,,,2,,,,,{ bonus2 bMagicAddRace,RC_Demon,2; },{},{}
4407,Randgris_Card,Randgris Card,6,20,,10,,,,,,,,2,,,,,{ bonus bUnbreakableWeapon; bonus2 bAddClass,Class_All,10; bonus3 bAutoSpell,"SA_DISPELL",1,50; },{},{}
4408,Gloom_Under_Night_Card,Gloom Under Night Card,6,20,,10,,,,,,,,16,,,,,{ bonus2 bAddEle,Ele_Holy,40; bonus2 bAddEle,Ele_Dark,40; bonus2 bAddRace,RC_Angel,40; bonus2 bAddRace,RC_Demon,40; },{},{}
4409,Agav_Card,Agav Card,6,20,,10,,,,,,,,16,,,,,{ bonus bMatkRate,5; bonus bDef,-10; if(BaseClass==Job_Mage) bonus bMaxSP,100; },{},{}
4410,Echio_Card,Echio Card,6,20,,10,,,,,,,,16,,,,,{ bonus bBaseAtk,15; if(BaseClass==Job_Swordman) bonus bMaxHP,500; },{},{}
4411,Vanberk_Card,Vanberk Card,6,20,,10,,,,,,,,769,,,,,{ bonus bStr,2; autobonus "{ bonus bCritical,100; }",5,5000,0,"{ specialeffect2 EF_ENHANCE; }"; },{},{}
4412,Isilla_Card,Isilla Card,6,20,,10,,,,,,,,769,,,,,{ bonus bInt,2; autobonus "{ bonus bVariableCastrate,-50; bonus bFlee,30; }",50,5000,BF_MAGIC,"{ specialeffect2 EF_SUFFRAGIUM; }"; },{},{}
4413,Hodremlin_Card,Hodremlin Card,6,20,,10,,,,,,,,32,,,,,{ bonus2 bSubSize,Size_All,15; autobonus2 "{ bonus bFlee2,30; }",3,10000,BF_WEAPON|BF_MAGIC,"{ specialeffect2 EF_WIND; }"; },{},{}
4414,Seeker_Card,Seeker Card,6,20,,10,,,,,,,,32,,,,,{ skill "MG_STONECURSE",1; bonus2 bResEff,Eff_Stone,3000; bonus bMdef,10; },{},{}
4415,Snowier_Card,Snowier Card,6,20,,10,,,,,,,,136,,,,,{ bonus2 bAddMonsterDropItem,536,500; bonus2 bAddItemHealRate,536,100; },{},{}
4416,Siroma_Card,Siroma Card,6,20,,10,,,,,,,,136,,,,,{ bonus2 bSkillAtk,"MG_COLDBOLT",25; bonus2 bVariableCastrate,"MG_COLDBOLT",-25; },{},{}
4417,Ice_Titan_Card,Ice Titan Card,6,20,,10,,,,,,,,64,,,,,{ bonus bVit,2; autobonus2 "{ bonus bDef,10; }",3,10000,BF_WEAPON|BF_MAGIC,"{ specialeffect2 EF_FREEZED; }"; },{},{}
4418,Gazeti_Card,Gazeti Card,6,20,,10,,,,,,,,136,,,,,{ bonus3 bAutoSpell,"MG_COLDBOLT",2,100; },{},{}
4419,Ktullanux_Card,Ktullanux Card,6,20,,10,,,,,,,,16,,,,,{ bonus2 bAddEle,Ele_Fire,50; bonus5 bAutoSpellWhenHit,"WZ_FROSTNOVA",10,20,BF_WEAPON|BF_MAGIC,0; },{},{}
4420,Muscipular_Card,Muscipular Card,6,20,,10,,,,,,,,32,,,,,{ bonus3 bAutoSpellWhenHit,"AL_HEAL",1,100; bonus3 bAutoSpellWhenHit,"AL_INCAGI",1,100; },{},{}
4421,Drosera_Card,Drosera Card,6,20,,10,,,,,,,,2,,,,,{ bonus bCriticalLong,15; },{},{}
4422,Roween_Card,Roween Card,6,20,,10,,,,,,,,4,,,,,{ bonus bFlee,5; bonus bFlee2,3; bonus2 bAddEle,Ele_Water,10; bonus2 bCriticalAddRace,RC_Fish,15; },{},{}
4423,Galion_Card,Galion Card,6,20,,10,,,,,,,,136,,,,,{ bonus bHit,5; bonus2 bAddEle,Ele_Water,5; },{},{}
4424,Stapo_Card,Stapo Card,6,20,,10,,,,,,,,136,,,,,{ skill "TF_PICKSTONE",1; skill "TF_THROWSTONE",1; },{},{}
4425,Atroce_Card,Atroce Card,6,20,,10,,,,,,,,2,,,,,{ bonus bBaseAtk,25; autobonus "{ bonus bAspdRate,100; }",5,10000,0,"{ specialeffect2 EF_POTION_BERSERK; }"; },{},{}
4426,Byorgue_Card,Byorgue Card,6,20,,10,,,,,,,,16,,,,,{ if(BaseJob==Job_Rogue) { bonus bMatkRate,10; bonus2 bAddClass,Class_All,10; } },{},{}
4427,Sword_Guardian_Card,Sword Guardian Card,6,20,,10,,,,,,,,2,,,,,{ .@i = getiteminfo(getequipid(EQI_HAND_R),11); if(.@i==W_1HSWORD||.@i==W_2HSWORD) { bonus bHit,5; bonus bCritical,5; bonus2 bSkillAtk,62,25; } },{},{}
4428,Bow_Guardian_Card,Bow Guardian Card,6,20,,10,,,,,,,,2,,,,,{ if(getiteminfo(getequipid(EQI_HAND_R),11)==W_BOW) { bonus bHit,5; bonus bCritical,5; bonus2 bSkillAtk,"AC_SHOWER",50; } },{},{}
4429,Salamander_Card,Salamander Card,6,20,,10,,,,,,,,4,,,,,{ bonus2 bSkillAtk,"WZ_FIREPILLAR",40; bonus2 bSkillAtk,"WZ_METEOR",40; },{},{}
4430,Ifrit_Card,Ifrit Card,6,20,,10,,,,,,,,136,,,,,{ bonus bBaseAtk,(JobLevel/10); bonus bCritical,(JobLevel/10); bonus bHit,(JobLevel/10); bonus3 bAutoSpellWhenHit,"NPC_EARTHQUAKE",10,1; },{},{}
4431,Kasa_Card,Kasa Card,6,20,,10,,,,,,,,4,,,,,{ bonus3 bAutoSpell,"MG_FIREBALL",5,20; bonus3 bAutoSpell,"MG_FIREBOLT",5,20; },{},{}
4432,Magmaring_Card,Magmaring Card,6,20,,10,,,,,,,,4,,,,,{ bonus bBaseAtk,5; bonus2 bAddEle,Ele_Earth,10; bonus2 bCriticalAddRace,RC_Brute,15; },{},{}
4433,Imp_Card,Imp Card,6,20,,10,,,,,,,,136,,,,,{ bonus2 bSkillAtk,"MG_FIREBOLT",25; bonus2 bVariableCastrate,"MG_FIREBOLT",-25; },{},{}
4434,Knocker_Card,Knocker Card,6,20,,10,,,,,,,,769,,,,,{ bonus2 bAddRace,RC_Formless,5; bonus3 bAddMonsterDropItem,756,RC_Formless,10; bonus3 bAddMonsterDropItem,757,RC_Formless,10; },{},{}
4435,Zombie_Slaughter_Card,Zombie Slaughter Card,6,20,,10,,,,,,,,64,,,,,{ bonus2 bAddRace,RC_DemiHuman,1; bonus2 bAddRace,RC_Player,1; bonus2 bMagicAddRace,RC_DemiHuman,1; bonus2 bMagicAddRace,RC_Player,1; bonus bHPGainValue,50; },{},{}
4436,Ragged_Zombie_Card,Ragged Zombie Card,6,20,,10,,,,,,,,136,,,,,{ bonus2 bCriticalAddRace,RC_DemiHuman,5; bonus2 bCriticalAddRace,RC_Player,5; bonus2 bAddRace,RC_DemiHuman,1; bonus2 bAddRace,RC_Player,1; bonus2 bMagicAddRace,RC_DemiHuman,1; bonus2 bMagicAddRace,RC_Player,1; bonus2 bAddEff2,Eff_Bleeding,10; },{},{}
4437,Hell_Poodle_Card,Hell Poodle Card,6,20,,10,,,,,,,,136,,,,,{ bonus bHit,1; bonus2 bAddItemHealRate,517,100; bonus3 bAddEff,Eff_Bleeding,50,ATF_SHORT; },{},{}
4438,Banshee_Card,Banshee Card,6,20,,10,,,,,,,,769,,,,,{ if(BaseClass==Job_Mage){ bonus bMaxSP,100; bonus bMaxHP,-100; bonus2 bSkillAtk,"MG_NAPALMBEAT",20; bonus2 bSkillAtk,"MG_SOULSTRIKE",20; bonus2 bSkillAtk,"HW_NAPALMVULCAN",20; } },{},{}
4439,Flame_Skull_Card,Flame Skull Card,6,20,,10,,,,,,,,32,,,,,{ bonus2 bResEff,Eff_Blind,3000; bonus2 bResEff,Eff_Stun,3000; bonus2 bResEff,Eff_Curse,3000; bonus2 bResEff,Eff_Stone,3000; bonus2 bAddEffWhenHit,Eff_Blind,500; bonus2 bAddEffWhenHit,Eff_Stun,500; bonus2 bAddEffWhenHit,Eff_Curse,500; bonus2 bAddEffWhenHit,Eff_Stone,500; },{},{}
4440,Necromancer_Card,Necromancer Card,6,20,,10,,,,,,,,2,,,,,{ .@i = getiteminfo(getequipid(EQI_HAND_R),11); if(.@i==W_STAFF || .@i==W_2HSTAFF) { bonus bInt,1; bonus2 bIgnoreMdefClassRate,Class_Normal,2; bonus2 bIgnoreMdefClassRate,Class_Boss,2; } },{},{}
4441,Fallen_Bishop_Card,Fallen Bishop Hibram Card,6,20,,10,,,,,,,,64,,,,,{ bonus bMatkRate,10; bonus bMaxSPrate,-50; bonus2 bMagicAddRace,RC_Angel,50; bonus2 bMagicAddRace,RC_DemiHuman,50; bonus2 bMagicAddRace,RC_Player,50; },{},{}
4442,Tatacho_Card,Tatacho Card,6,20,,10,,,,,,,,32,,,,,{ bonus2 bSubDefEle,Ele_Neutral,20; bonus2 bAddEle,Ele_Neutral,5; },{},{}
4443,Aqua_Elemental_Card,Aqua Elemental Card,6,20,,10,,,,,,,,32,,,,,{ bonus2 bSubDefEle,Ele_Water,20; bonus2 bAddEle,Ele_Water,5; },{},{}
4444,Draco_Card,Draco Card,6,20,,10,,,,,,,,32,,,,,{ bonus2 bSubDefEle,Ele_Earth,20; bonus2 bAddEle,Ele_Earth,5; },{},{}
4445,Luciola_Vespa_Card,Luciola Vespa Card,6,20,,10,,,,,,,,32,,,,,{ bonus2 bSubDefEle,Ele_Wind,20; bonus2 bAddEle,Ele_Wind,5; },{},{}
4446,Enhanced_Skeleton_Card,Enhanced Skeleton Card,6,20,,10,,,,,,,,2,,,,,{ bonus bBaseAtk,15; bonus2 bAddEff,Eff_Stun,(BaseLevel>=100?300:200); },{},{}
4447,Centipede_Card,Centipede Card,6,20,,10,,,,,,,,32,,,,,{ bonus2 bSubDefEle,Ele_Poison,20; bonus2 bAddEle,Ele_Poison,5; },{},{}
4448,Cornus_Card,Cornus Card,6,20,,10,,,,,,,,32,,,,,{ bonus2 bSubDefEle,Ele_Holy,20; bonus2 bAddEle,Ele_Holy,5; },{},{}
4449,Dark_Shadow_Card,Dark Shadow Card,6,20,,10,,,,,,,,32,,,,,{ bonus2 bSubDefEle,Ele_Dark,20; bonus2 bAddEle,Ele_Dark,5; },{},{}
4450,Banshee_Master_Card,Banshee Master Card,6,20,,10,,,,,,,,16,,,,,{ bonus bInt,1; bonus bMatk,10; },{},{}
4451,Ant_Buyanne_Card,Entweihen Crothen Card,6,20,,10,,,,,,,,16,,,,,{ bonus bMatk,100; },{},{}
4452,Centipede_Larva_Card,Centipede Larva Card,6,20,,10,,,,,,,,2,,,,,{ bonus bInt,1; bonus bMatk,3; },{},{}
4453,Hilsrion_Card,Hillsrion Card,6,20,,10,,,,,,,,2,,,,,{ bonus bBaseAtk,25; },{},{}
4454,Light_Up_Card1,Light Up Card,6,20,,10,,,,,,,,2,,,,,{},{},{}
4455,Light_Up_Card2,Light Up Card,6,20,,10,,,,,,,,2,,,,,{},{},{}
4456,Nidhogg_Shadow_Card,Nidhoggur Shadow Card,6,20,,10,,,,,,,,16,,,,,{ bonus bInt,5; if (Class == Job_High_Wizard || Class == Job_Baby_Warlock || Class == Job_Warlock || Class == Job_Warlock_T) bonus bFixedCastrate,-50; },{},{}
4457,Nahtzigger_Card,Naght Sieger Card,6,20,,10,,,,,,,,16,,,,,{ bonus2 bMagicAtkEle,Ele_Ghost,30; },{},{}
4458,Duneirre_Card,Duneyrr Card,6,20,,10,,,,,,,,769,,,,,{ bonus bBaseAtk,10; autobonus "{ bonus bFlee2,10; }",10,10000,0,"{ specialeffect2 EF_HASTEUP; }"; },{},{}
4459,Lata_Card,Rata Card,6,20,,10,,,,,,,,769,,,,,{ bonus bMatk,10; autobonus "{ bonus bFixedCastrate,-50; }",5,4000,BF_MAGIC,"{ specialeffect2 EF_SUFFRAGIUM; }"; },{},{}
4460,Ringco_Card,Rhyncho Card,6,20,,10,,,,,,,,769,,,,,{ bonus bHealPower,4; bonus2 bSkillUseSP,"AL_HEAL",-15; },{},{}
4461,Pillar_Card,Phylla Card,6,20,,10,,,,,,,,769,,,,,{ bonus bDex,1; bonus bAgi,1; autobonus "{ bonus bCritical,20; }",15,4000,0,"{ specialeffect2 EF_ENHANCE; }"; },{},{}
4462,Hardrock_Mommos_Card,Hardrock Mammoth Card,6,20,,10,,,,,,,,16,,,,,{ .@r = getrefine(); bonus bDef,5; if(.@r>=12) { bonus bDef,20; bonus bMaxHPrate,10; } if(.@r>=14) { bonus bMaxHPrate,3; } },{},{}
4463,Tendrilion_Card,Tendrilrion Card,6,20,,10,,,,,,,,2,,,,,{ bonus bCritical,5; .@r = getrefine(); if(.@r>=12) { bonus bBaseAtk,35; } if(.@r>=14) { bonus bCritical,10; } },{},{}
4464,Aunoe_Card,Aunoe Card,6,20,,10,,,,,,,,2,,,,,{ bonus bCritAtkRate,20; },{},{}
4465,Panat_Card,Fanat Card,6,20,,10,,,,,,,,2,,,,,{ bonus bBaseAtk,10; if(getiteminfo(getequipid(EQI_HAND_R),11)==W_2HSWORD) { .@r = getrefine(); if(.@r>=10) { bonus bAspd,1; } if(.@r>=14) { bonus bAspd,1; } } },{},{}
4466,Beholder_Master_Card,Beholder Master Card,6,20,,10,,,,,,,,2,,,,,{ bonus bLongAtkRate,3; if(getiteminfo(getequipid(EQI_HAND_R),11)==W_BOW) { .@r = getrefine(); if(.@r>=10) { bonus bAspd,1; } if(.@r>=14) { bonus bAspd,1; } } },{},{}
4467,Heavy_Metaling_Card,Heavy Metaling Card,6,20,,10,,,,,,,,64,,,,,{ bonus bStr,2; if(BaseClass==Job_Merchant){ bonus2 bSkillAtk,"MC_CARTREVOLUTION",50; } },{},{}
4468,Pinguicula_Dark_Card,Dark Pinguicula Card,6,20,,10,,,,,,,,769,,,,,{ bonus bBaseAtk,10; bonus2 bAddMonsterDropItem,7932,10; bonus2 bAddMonsterDropItem,7933,10; bonus2 bAddMonsterDropItem,7934,10; bonus2 bAddMonsterDropItem,7935,10; bonus2 bAddMonsterDropItem,7936,10; bonus2 bAddMonsterDropItem,7937,10; },{},{}
4469,Naga_Card,Naga Card,6,20,,10,,,,,,,,2,,,,,{ bonus2 bMagicAddRace,RC_Fish,10; },{},{}
4470,Nepenthes_Card,Nepenthes Card,6,20,,10,,,,,,,,2,,,,,{ bonus2 bMagicAddRace,RC_Plant,10; },{},{}
4471,Egg_Of_Draco_Card,Draco Egg Card,6,20,,10,,,,,,,,2,,,,,{ bonus2 bMagicAddRace,RC_Dragon,10; },{},{}
4472,Bradium_Goram_Card,Bradium Golem Card,6,20,,10,,,,,,,,2,,,,,{ bonus2 bMagicAddRace,RC_Brute,10; },{},{}
4473,Ancient_Tree_Card,Ancient Tree Card,6,20,,10,,,,,,,,2,,,,,{ bonus2 bMagicAddRace,RC_Undead,10; },{},{}
4474,Jakudam_Card,Zakudam Card,6,20,,10,,,,,,,,2,,,,,{ bonus2 bMagicAddRace,RC_DemiHuman,10; bonus2 bMagicAddRace,RC_Player,10; },{},{}
4475,Cobalt_Mineral_Card,Cobalt Mineral Card,6,20,,10,,,,,,,,2,,,,,{ bonus2 bMagicAddRace,RC_Formless,10; },{},{}
4476,Pinguicula_Card,Pinguicula Card,6,20,,10,,,,,,,,2,,,,,{ bonus2 bMagicAddRace,RC_Insect,10; },{},{}
4477,Hell_Apocalips_Card,Hell Apocalypse Card,6,20,,10,,,,,,,,2,,,,,{ bonus2 bMagicAddRace,RC_Demon,10; },{},{}
4478,Light_Up_Card3,Light Up Card,6,20,,10,,,,,,,,64,,,,,{},{},{}
4479,Light_Up_Card4,Light Up Card,6,20,,10,,,,,,,,4,,,,,{},{},{}
4480,Sealed_Kiel_Card,Sealed Kiel Card,6,20,,10,,,,,,,,769,,,,,{ bonus bDelayRate,((getrefine()>14)?-20:-15); },{},{}
4481,Sealed_Ktullanux_Card,Sealed Ktullanux Card,6,20,,10,,,,,,,,16,,,,,{ bonus2 bAddEle,Ele_Fire,((getrefine()>14)?35:25); bonus5 bAutoSpellWhenHit,"WZ_FROSTNOVA",10,10,BF_WEAPON|BF_MAGIC,0; },{},{}
4482,Sealed_B_Ygnizem_Card,Sealed General Egnigem Cenia Card,6,20,,10,,,,,,,,64,,,,,{ .@rate = ((getrefine()>14)?7:5); bonus bMaxHPrate,.@rate; bonus bMaxSPrate,.@rate; bonus2 bHPRegenRate,50,10000; bonus2 bSPRegenRate,10,10000; },{},{}
4483,Sealed_Dracula_Card,Sealed Dracula Card,6,20,,10,,,,,,,,2,,,,,{ bonus2 bSPDrainRate,((getrefine()>14)?70:50),5; },{},{}
4484,Sealed_Mistress_Card,Sealed Mistress Card,6,20,,10,,,,,,,,769,,,,,{ bonus bNoGemStone; bonus bUseSPrate,((getrefine()>14)?35:50); },{},{}
4485,Sealed_Gloom_Card,Sealed Gloom Under Night Card,6,20,,10,,,,,,,,16,,,,,{ .@rate = ((getrefine()>14)?30:20); bonus2 bAddEle,Ele_Holy,.@rate; bonus2 bAddEle,Ele_Dark,.@rate; bonus2 bAddRace,RC_Angel,.@rate; bonus2 bAddRace,RC_Demon,.@rate; },{},{}
4486,Sealed_Berz_Card,Sealed Berzebub Card,6,20,,10,,,,,,,,136,,,,,{ bonus bVariableCastrate,-15; },{},{}
4487,Sealed_Ifrit_Card,Sealed Ifrit Card,6,20,,10,,,,,,,,136,,,,,{ bonus bBaseAtk,(JobLevel/20); bonus bCritical,(JobLevel/20); bonus bHit,(JobLevel/20); bonus3 bAutoSpellWhenHit,"NPC_EARTHQUAKE",5,1; },{},{}
4488,Sealed_D_Lord_Card,Sealed Dark Lord Card,6,20,,10,,,,,,,,64,,,,,{ bonus3 bAutoSpellWhenHit,"WZ_METEOR",5,50; },{},{}
4489,Sealed_Pharaoh_Card,Sealed Pharaoh Card,6,20,,10,,,,,,,,769,,,,,{ bonus bUseSPrate,-15; },{},{}
4490,Sealed_M_Flower_Card,Sealed Moonlight Flower Card,6,20,,10,,,,,,,,64,,,,,{ skill "AL_INCAGI",((getrefine()>14)?5:1); },{},{}
4491,Sealed_B_Shecil_Card,Sealed Sniper Card,6,20,,10,,,,,,,,2,,,,,{ bonus bHPrecovRate,-100; bonus2 bHPDrainRate,50,((getrefine()>14)?15:10); },{},{}
4492,Sealed_Orc_Hero_Card,Sealed Orc Hero Card,6,20,,10,,,,,,,,769,,,,,{ bonus bVit,3; bonus2 bResEff,Eff_Stun,((getrefine()>14)?6000:4000); },{},{}
4493,Sealed_Tao_Card,Sealed Tao Gunka Card,6,20,,10,,,,,,,,16,,,,,{ bonus bMaxHPrate,((getrefine()>14)?75:50); bonus bDefRate,-50; bonus bMdefRate,-50; },{},{}
4494,Sealed_TurtleG_Card,Sealed Turtle General Card,6,20,,10,,,,,,,,2,,,,,{ .@rate = ((getrefine()>14)?15:10); bonus2 bAddClass,Class_All,.@rate; bonus3 bAutoSpell,"SM_MAGNUM",10,15; },{},{}
4495,Sealed_Amon_Ra_Card,Sealed Amon Ra Card,6,20,,10,,,,,,,,64,,,,,{ bonus bAllStats,1; bonus3 bAutoSpellWhenHit,"PR_KYRIE",((getrefine()>14)?8:5),(15+35*(readparam(bInt)>=99)); },{},{}
4496,Sealed_Drake_Card,Sealed Drake Card,6,20,,10,,,,,,,,2,,,,,{ .@rate = (getrefine()>=15?75:50); bonus2 bAddSize,Size_All,.@rate; bonus2 bMagicAddSize,Size_All,.@rate; },{},{}
4497,Sealed_Knight_WS_Card,Sealed Stormy Knight Card,6,20,,10,,,,,,,,2,,,,,{ bonus3 bAutoSpell,"WZ_STORMGUST",1,10; bonus2 bAddEff,Eff_Freeze,((getrefine()>14)?1500:1000); },{},{}
4498,Sealed_Lady_Tanee_Card,Sealed Lady Tanee Card,6,20,,10,,,,,,,,64,,,,,{ .@r = getrefine(); bonus bMaxHPrate,((.@r>14)?-50:-60); bonus bMaxSPrate,50; bonus2 bAddMonsterDropItem,513,100; bonus2 bAddItemHealRate,513,((.@r>14)?80:50); },{},{}
4499,Sealed_Samurai_Card,Sealed Samurai Spector Card,6,20,,10,,,,,,,,2,,,,,{ bonus bIgnoreDefClass,Class_Normal; bonus bHPrecovRate,-100; if (getrefine()>14) bonus2 bHPLossRate,777,8000; else bonus2 bHPLossRate,888,5000; },{},{ if((Hp<=999) && !getmapflag(strcharinfo(3),mf_pvp) && !getmapflag(strcharinfo(3),mf_pvp_noparty) && !getmapflag(strcharinfo(3),mf_pvp_noguild)) { heal(1-Hp),0; } else { heal -999,0; } }
4500,Sealed_Orc_Load_Card,Sealed Orc Lord Card,6,20,,10,,,,,,,,16,,,,,{ bonus bShortWeaponDamageReturn,((getrefine()>14)?25:15); },{},{}
4501,Sealed_B_Magaleta_Card,Sealed High Priest Card,6,20,,10,,,,,,,,16,,,,,{ bonus5 bAutoSpellWhenHit,"HP_ASSUMPTIO",1,((getrefine()>14)?35:25),BF_WEAPON|BF_MAGIC,0; },{},{}
4502,Sealed_B_Harword_Card,Sealed MasterSmith Card,6,20,,10,,,,,,,,2,,,,,{ .@r = getrefine(); bonus bBreakWeaponRate,(.@r>14?800:500); bonus bBreakArmorRate,(.@r>14?600:500); },{},{}
4503,Sealed_Apocalips_H_Card,Sealed Vesper Card,6,20,,10,,,,,,,,769,,,,,{ bonus bDex,2; bonus2 bIgnoreMdefClassRate,Class_Boss,((getrefine()>14)?25:15); },{},{}
4504,Sealed_Eddga_Card,Sealed Eddga Card,6,20,,10,,,,,,,,64,,,,,{ bonus bMaxHPrate,((getrefine()>14)?-35:-50); bonus bNoWalkDelay; },{},{}
4505,Scaraba_Card,Scaraba Card,6,20,,10,,,,,,,,136,,,,,{ bonus bMatk,20; bonus bMaxSPrate,-1; },{},{}
4506,Dolomedes_Card,Dolomedes Card,6,20,,10,,,,,,,,769,,,,,{ bonus bDex,2; if(BaseClass==Job_Archer){ bonus bDex,getrefine()/3; } },{},{}
4507,Q_Scaraba_Card,Queen Scaraba Card,6,20,,10,,,,,,,,2,,,,,{ bonus2 bAddRace2,RC2_SCARABA,30; bonus2 bAddMonsterDropItem,12806,30; },{},{}
4508,Gold_Scaraba_Card,Gold Scaraba Card,6,20,,10,,,,,,,,136,,,,,{ bonus bBaseAtk,20; bonus bMaxHPrate,-1; },{},{}
4509,Gold_Q_Scaraba_Card,Gold Queen Scaraba Card,6,20,,10,,,,,,,,769,,,,,{ bonus bInt,3; bonus2 bSubRace,RC_Insect,10; if(getrefine()>=9) { bonus2 bSubRace,RC_Insect,5; } },{},{}
4510,Miming_Card,Miming Card,6,20,,10,,,,,,,,2,,,,,{ bonus3 bAutoSpell,"WM_LULLABY_DEEPSLEEP",1,30; },{},{}
4511,Little_Fatum_Card,Little Fatum Card,6,20,,10,,,,,,,,2,,,,,{ bonus3 bAddEff,Eff_Silence,500,ATF_MAGIC; },{},{}
4512,Parus_Card,Parus Card,6,20,,10,,,,,,,,769,,,,,{ bonus bHealPower,3; if(BaseClass==Job_Acolyte){ bonus bHealPower,getrefine()/2; } },{},{}
4513,Angra_Mantis_Card,Angra Mantis Card,6,20,,10,,,,,,,,769,,,,,{ bonus bCritAtkRate,2; if(BaseClass==Job_Thief){ bonus bCritAtkRate,getrefine()/2; } },{},{}
4514,Pom_Spider_Card,Pom Spider Card,6,20,,10,,,,,,,,2,,,,,{ bonus2 bAddRace,RC_Undead,20; },{},{}
4515,Alnoldi_Card,Alnoldi Card,6,20,,10,,,,,,,,32,,,,,{ bonus2 bSubRace,RC_Plant,30; },{},{}
4516,Comodo_Card,Comodo Card,6,20,,10,,,,,,,,16,,,,,{ bonus bDef,50; bonus bFlee,-25; },{},{}
4517,Cendrawasih_Card,Cendrawasih Card,6,20,,10,,,,,,,,769,,,,,{ bonus bInt,2; if(BaseClass==Job_Mage){ bonus bInt,getrefine()/3; } },{},{}
4518,Banaspaty_Card,Banaspaty Card,6,20,,10,,,,,,,,2,,,,,{ bonus3 bAddEff,Eff_Burning,500,ATF_TARGET; },{},{}
4519,Butoijo_Card,Butoijo Card,6,20,,10,,,,,,,,2,,,,,{ bonus2 bAddRace,RC_Angel,20; },{},{}
4520,Leak_Card,Leak Card,6,20,,10,,,,,,,,4,,,,,{ bonus bStr,3; bonus2 bAddEff,Eff_Confusion,5000; bonus3 bAddEff,Eff_Confusion,5000,ATF_TARGET; },{},{}
4521,Sedora_Card,Sedora Card,6,20,,10,,,,,,,,2,,,,,{ bonus bCritAtkRate,15; },{},{}
4522,Sropho_Card,Sropho Card,6,20,,10,,,,,,,,2,,,,,{ bonus4 bAddEff,Eff_Crystalize,500,ATF_SHORT,3000; },{},{}
4523,Pot_Dofle_Card,Pot Dofle Card,6,20,,10,,,,,,,,16,,,,,{ bonus bDefEle,Ele_Water; bonus2 bSubRace,RC_Fish,10; },{},{}
4524,King_Dramoh_Card,King Dramoh Card,6,20,,10,,,,,,,,769,,,,,{ bonus bStr,2; if(BaseClass==Job_Swordman){ bonus bStr,2+(getrefine()/3); } },{},{}
4525,Kraken_Card,Kraken Card,6,20,,10,,,,,,,,4,,,,,{ bonus bFlee,10; skill "TF_HIDING",1; skill "RG_RAID",1; bonus5 bAutoSpellOnSkill,"RG_RAID","NPC_WIDEBLEEDING",1,250,1; },{},{ sc_end SC_HIDING; }
4526,Odd_Coelacanth_Card,Weird Coelacanth Card,6,20,,10,,,,,,,,16,,,,,{ bonus bMaxSPrate,5; bonus bMdef,50; },{},{}
4527,Black_Coelacanth_Card,Dark Coelacanth Card,6,20,,10,,,,,,,,16,,,,,{ bonus bMaxHPrate,10; bonus bDef,100; },{},{}
4528,Mutant_Coelacanth_Card,Mutant Coelacanth Card,6,20,,10,,,,,,,,769,,,,,{ .@r = getrefine(); bonus bMatkRate,2+(.@r/2); bonus bMaxHPrate,-.@r/2; },{},{}
4529,Cruel_Coelacanth_Card,Violent Coelacanth Card,6,20,,10,,,,,,,,769,,,,,{ .@r = getrefine(); bonus2 bAddClass,Class_All,2+(.@r/2); bonus bMaxSPrate,-.@r/2; },{},{}
4530,Siorava_Card,Siorava Card,6,20,,10,,,,,,,,769,,,,,{ bonus bLuk,2; if(BaseClass==Job_Merchant){ bonus bLuk,2+(getrefine()/3); } },{},{}
4531,Red_Eruma_Card,Red Eruma Card,6,20,,10,,,,,,,,2,,,,,{ bonus3 bAddEff,Eff_Curse,100,ATF_MAGIC; },{},{}
4532,Wild_Rider_Card,Wild Rider Card,6,20,,10,,,,,,,,64,,,,,{ bonus bAgi,1; bonus3 bAutoSpell,"AL_INCAGI",1,50; },{},{}
4533,Mini_Octopus_Card,Octopus Card,6,20,,10,,,,,,,,2,,,,,{ bonus3 bAddEff,Eff_Blind,100,ATF_MAGIC; },{},{}
4534,Giant_Octopus_Card,Giant Octopus Card,6,20,,10,,,,,,,,16,,,,,{ bonus bMaxHPrate,12; skill "WZ_WATERBALL",5; },{},{}
4535,Sealed_Rand_Card,Sealed Randgris Card,6,20,,10,,,,,,,,2,,,,,{ bonus2 bAddClass,Class_All,(getrefine()>=15?8:5); bonus5 bAutoSpell,"SA_DISPELL",1,1,BF_NORMAL,1; bonus bUnbreakableWeapon; },{},{}
4536,Sealed_Atroce_Card,Sealed Atroce Card,6,20,,10,,,,,,,,2,,,,,{ .@r = getrefine(); bonus bBaseAtk,((.@r>14)?25:15); autobonus "{ bonus bAspdRate,(("+.@r+">14)?75:50); }",5,10000,0,"{ specialeffect2 EF_POTION_BERSERK; }"; },{},{}
4537,Sealed_Phreeoni_Card,Sealed Phreeoni Card,6,20,,10,,,,,,,,2,,,,,{ bonus bHit,((getrefine()>14)?75:50); },{},{}
4538,Sealed_Bacsojin_Card,Sealed White Lady Card,6,20,,10,,,,,,,,769,,,,,{ .@r = getrefine(); bonus bHealPower,(.@r>14?25:15); bonus bUseSPrate,(.@r>14?20:30); },{},{}
4539,Sealed_F_Bishop_Card,Sealed Fallen Bishop Hibram Card,6,20,,10,,,,,,,,64,,,,,{ .@r = getrefine(); bonus bMatkRate,((.@r>14)?8:5); bonus bMaxSPrate,-50; .@rate = ((.@r>14)?33:25); bonus2 bMagicAddRace,RC_Angel,.@rate; bonus2 bMagicAddRace,RC_DemiHuman,.@rate; bonus2 bMagicAddRace,RC_Player,.@rate; },{},{}
4540,SLD_Lord_Of_Death_Card,Sealed Lord of The Dead Card,6,20,,10,,,,,,,,2,,,,,{ .@rate = ((getrefine()>14)?350:250); bonus3 bAddEff,Eff_Stun,.@rate,ATF_SHORT; bonus3 bAddEff,Eff_Curse,.@rate,ATF_SHORT; bonus3 bAddEff,Eff_Silence,.@rate,ATF_SHORT; bonus3 bAddEff,Eff_Poison,.@rate,ATF_SHORT; bonus3 bAddEff,Eff_Bleeding,.@rate,ATF_SHORT; bonus2 bComaClass,Class_Normal,1; },{},{}
4541,SLD_B_Katrinn_Card,Sealed High Wizard Card,6,20,,10,,,,,,,,769,,,,,{ bonus2 bIgnoreMdefClassRate,Class_Normal,100; .@rate = ((getrefine()>14)?120:150); bonus bVariableCastrate,.@rate; bonus bSPrecovRate,-.@rate; },{},{ heal 0,((getrefine()>14)?-2000:-3000); }
4542,SLD_Detale_Card,Sealed Detale Card,6,20,,10,,,,,,,,16,,,,,{ bonus2 bResEff,Eff_Freeze,(getrefine()>=15?6000:4000); bonus5 bAutoSpell,"SA_LANDPROTECTOR",1,1,BF_MAGIC,1; bonus bMdef,-20; },{},{}
4543,SLD_Garm_Card,Sealed Hatii Card,6,20,,10,,,,,,,,16,,,,,{ bonus2 bAddEffWhenHit,Eff_Freeze,((getrefine()>14)?4000:2500); },{},{}
4544,SLD_Dark_Snake_Card,Sealed Evil Snake Lord Card,6,20,,10,,,,,,,,769,,,,,{ bonus bInt,3; .@i = (getrefine()>14?7500:5000); bonus2 bResEff,Eff_Blind,.@i; bonus2 bResEff,Eff_Curse,.@i; },{},{}
4545,Novice_Poring_Card,Novice Poring Card,6,20,,10,,,,,,,,769,,,,,{ bonus bLuk,1; },{},{}
4546,Val'khiri_Card,Val'khiri Card,6,20,,10,,,,,,,,2,,,,,{},{},{}
4547,Upd_Byorgue_Card,Enhanced Byorgue Card,6,20,,10,,,,,,,,16,,,,,{ if(BaseJob==Job_Rogue) { bonus bMatkRate,10; bonus2 bAddClass,Class_All,10; bonus bMaxHPrate,getrefine()/2; } /* Adds a chance of inflicting Confuse on target when using Body Paint skill. */ },{},{}
4548,Upd_Salamander_Card,Enhanced Salamander Card,6,20,,10,,,,,,,,4,,,,,{ bonus2 bSkillAtk,"WZ_FIREPILLAR",40; bonus2 bSkillAtk,"WZ_METEOR",40; },{},{}
4549,Upd_Maya_Puple_Card,Upd Maya Puple Card,6,20,,10,,,,,,,,769,,,,,{ bonus bIntravision; bonus bAllStats,1; skill "AL_RUWACH",1; },{},{}
4550,Upd_Bow_Guardian_Card,Upd Bow Guardian Card,6,20,,10,,,,,,,,2,,,,,{ if(getiteminfo(getequipid(EQI_HAND_R),11)==W_BOW) { bonus2 bSkillAtk,"RA_ARROWSTORM",50; bonus bCriticalLong,25+10*(getequiprefinerycnt(EQI_HAND_R)/4); bonus bHit,5; bonus3 bAutoSpell,"HT_PHANTASMIC",1,100; } },{},{}
4552,Manny_Card,Manny Card,6,20,,10,,,,,,,,136,,,,,{ bonus bMaxHP,10; },{},{}
4553,Sid_Card,Sid Card,6,20,,10,,,,,,,,16,,,,,{ bonus bMaxHP,100; },{},{}
4554,Diego_Card,Diego Card,6,20,,10,,,,,,,,4,,,,,{ bonus bMaxHP,100; },{},{}
4555,Scrat_Card,Scrat Card,6,20,,10,,,,,,,,769,,,,,{ bonus bMaxHP,100; },{},{}
4556,Fenrir_Card,Fenrir Card,6,10,,10,,,,,,,,769,,,,,{ bonus bMatk,50+getrefine()*5; bonus bFixedCastrate,-70; },{},{}
4557,Fenrir_Card_,Weakened Fenrir Card,6,10,,10,,,,,,,,769,,,,,{ bonus bMatk,25; },{},{}
4559,M_Morocc_Card,Evil Morocc Card,6,20,,100,,,,,,,,64,,,,,{ bonus bAspd,1; bonus bMaxSPrate,-10; },{},{}
4560,Clown_Card,Clown Alphoccio Card,6,20,,10,,,,,,,,16,,,,,{ skill "BA_POEMBRAGI",10; bonus bFlee,(readparam(bVit)>=110)?40:20; },{},{}
4561,Professor_Card,Professor Celia Card,6,20,,10,,,,,,,,16,,,,,{ bonus bMatkRate,(readparam(bDex)>=110)?14:7; bonus5 bAutoSpellWhenHit,"SA_LANDPROTECTOR",5,70,BF_MAGIC,0; },{},{}
4562,Champion_Card,Champion Chen Card,6,20,,10,,,,,,,,16,,,,,{ bonus2 bAddClass,Class_All,(readparam(bAgi)>=110)?14:7; bonus5 bAutoSpellWhenHit,"MO_INVESTIGATE",5,70,BF_WEAPON,1; },{},{}
4563,Creator_Card,Creator Flamel Card,6,20,,10,,,,,,,,16,,,,,{ bonus bCritical,(readparam(bStr)>=110)?40:20; bonus5 bAutoSpellWhenHit,"AM_ACIDTERROR",5,70,BF_WEAPON,1; },{},{}
4564,Stalker_Card,Stalker Gertie Card,6,20,,10,,,,,,,,16,,,,,{ bonus bHit,(readparam(bLuk)>=110)?40:20; bonus5 bAutoSpellWhenHit,"ST_FULLSTRIP",1,70,BF_WEAPON,1; },{},{}
4565,Paladin_Card,Paladin Randel Card,6,20,,10,,,,,,,,16,,,,,{ bonus bMaxHPrate,(readparam(bInt)>=110)?20:10; bonus5 bAutoSpellWhenHit,"CR_GRANDCROSS",10,70,BF_WEAPON,0; },{},{}
4566,Gypsy_Card,Gypsy Trentini Card,6,20,,10,,,,,,,,16,,,,,{ skill "DC_FORTUNEKISS",10; bonus bFlee,(readparam(bVit)>=110)?40:20; },{},{}
4567,Alphoccio_Card,Alphoccio Card,6,20,,10,,,,,,,,4,,,,,{ bonus bFlee,10; if(BaseJob==Job_Bard) { bonus bMaxHPrate,10; bonus bMaxSPrate,5;} },{},{}
4568,Ceila_Card,Celia Card,6,20,,10,,,,,,,,4,,,,,{ bonus bFlee,10; skill "SA_ABRACADABRA",1; },{},{}
4569,Chen_Card,Chen Card,6,20,,10,,,,,,,,4,,,,,{ bonus bFlee,10; skill "MO_CALLSPIRITS",2; },{},{}
4570,Flamel_Card,Flamel Card,6,20,,10,,,,,,,,4,,,,,{ bonus bFlee,10; bonus2 bAddItemGroupHealRate,IG_Flamel_Card,200; },{},{}
4571,Gertie_Card,Gertie Card,6,20,,10,,,,,,,,4,,,,,{ bonus bFlee,10; skill "RG_CLOSECONFINE",1; },{},{}
4572,Randel_Card,Randel Card,6,20,,10,,,,,,,,4,,,,,{ bonus bFlee,10; skill "CR_AUTOGUARD",3; },{},{}
4573,Trentini_Card,Trentini Card,6,20,,10,,,,,,,,4,,,,,{ bonus bFlee,10; if(BaseJob==Job_Dancer) { bonus bMaxHPrate,10; bonus bMaxSPrate,5;} },{},{}
4574,Daehyon_Card,General Daehyon Card,6,20,,10,,,,,,,,2,,,,,{ .@i = getiteminfo(getequipid(EQI_HAND_R),11); if(.@i==W_1HSWORD||.@i==W_2HSWORD) { bonus bBaseAtk,100; } },{},{}
4575,Soheon_Card,Armed Guard Soheon Card,6,20,,10,,,,,,,,2,,,,,{ bonus bBaseAtk,10; if(getiteminfo(getequipid(EQI_HAND_R),11) == W_DAGGER) { .@r = getrefine(); if(.@r>=10) { bonus bAspd,1; } if(.@r>=14) { bonus bAspd,1; } } },{},{}
4576,Gioia_Card,Gioia Card,6,20,,10,,,,,,,,4,,,,,{ bonus2 bMagicAtkEle,Ele_Wind,100; bonus2 bMagicAtkEle,Ele_Ghost,100; bonus2 bSubEle,Ele_All,-30; },{},{}
4577,Elvira_Card,Elvira Card,6,20,,10,,,,,,,,136,,,,,{ bonus2 bMagicAtkEle,Ele_Wind,20; bonus2 bMagicAtkEle,Ele_Ghost,20; },{},{}
4578,Pyuriel_Card,Angry Student Pyuriel Card,6,20,,10,,,,,,,,2,,,,,{ bonus bCritAtkRate,30; bonus2 bSubRace,RC_All,-10; bonus2 bSubRace,RC_Player,10; },{},{}
4579,Lora_Card,Warrior Lola Card,6,20,,10,,,,,,,,2,,,,,{ if(getiteminfo(getequipid(EQI_HAND_R),11) == W_MACE) { bonus bBaseAtk,20; bonus bCritical,10; } .@r = getrefine(); bonus bBaseAtk,.@r; bonus bCritical,.@r; },{},{}
4580,Kades_Card,Dark Guardian Kades Card,6,20,,10,,,,,,,,4,,,,,{ bonus2 bSubEle,Ele_Water,50; bonus2 bSubEle,Ele_Earth,50; bonus2 bSubEle,Ele_Fire,50; bonus2 bSubEle,Ele_Wind,50; bonus2 bSubEle,Ele_Dark,50; bonus2 bSubEle,Ele_Undead,50; bonus2 bSubEle,Ele_Holy,-100; bonus2 bSubEle,Ele_Ghost,-100; },{},{}
4581,Rudo_Card,Rudo Card,6,20,,10,,,,,,,,64,,,,,{ autobonus "{ bonus bAgi,44; heal 0,-40; }",500,3000,0,"{ sc_start SC_SPEEDUP1,3000,50; }"; },{},{}
4582,Bungisngis_Card,Bungisngis Card,6,20,,10,,,,,,,,769,,,,,{ bonus bMaxHPrate,(getrefine()/2); },{},{}
4583,Engkanto_Card,Engkanto Card,6,20,,10,,,,,,,,769,,,,,{ bonus2 bAddEle,Ele_Poison,30; bonus2 bMagicAddEle,Ele_Poison,30; bonus2 bIgnoreDefRaceRate,RC_Plant,30; },{},{}
4584,Manananggal_Card,Manananggal Card,6,20,,10,,,,,,,,2,,,,,{ bonus bSPDrainValue,1; bonus bMaxSPrate,-1; },{},{}
4585,Mangkukulam_Card,Mangkukulam Card,6,20,,10,,,,,,,,16,,,,,{ bonus bMaxSPrate,10; bonus bHPGainValue,-666; },{},{}
4586,Tikbalang_Card,Tikbalang Card,6,20,,10,,,,,,,,769,,,,,{ bonus bMatk,10; bonus2 bMagicAtkEle,Ele_Wind,(getrefine()>=9)?10:5; },{},{}
4587,Tiyanak_Card,Tiyanak Card,6,20,,10,,,,,,,,136,,,,,{ bonus2 bCriticalAddRace,RC_Brute,12; bonus2 bCriticalAddRace,RC_Fish,12; bonus2 bCriticalAddRace,RC_DemiHuman,12; },{},{}
4588,Wakwak_Card,Wakwak Card,6,20,,10,,,,,,,,4,,,,,{ bonus bBaseAtk,5*readparam(bStr)/10; },{},{}
4589,Jejeling_Card,Jejeling Card,6,20,,10,,,,,,,,4,,,,,{ bonus bMaxHP,200*readparam(bVit)/10; },{},{}
4590,Bangungot_Card,Bangungot Card,6,20,,10,,,,,,,,16,,,,,{ bonus bInt,4; bonus5 bAutoSpellWhenHit,"NPC_WIDESLEEP",5,70,BF_MAGIC,0; },{},{}
4591,Bakonawa_Card,Bakonawa Card,6,20,,10,,,,,,,,16,,,,,{ bonus bStr,4; bonus5 bAutoSpellWhenHit,"NPC_WIDEBLEEDING",5,70,BF_WEAPON,0; },{},{}
4592,Buwaya_Card,Buwaya Card,6,20,,10,,,,,,,,16,,,,,{ bonus bVit,4; bonus5 bAutoSpellWhenHit,"NPC_WIDESTONE",5,70,BF_MAGIC,0; },{},{}
4593,Menblatt_Card,Menblatt Card,6,20,,10,,,,,,,,4,,,,,{ bonus bLongAtkRate,readparam(bDex)/10; },{},{}
4594,Petal_Card,Petal Card,6,20,,10,,,,,,,,4,,,,,{ bonus bCritAtkRate,2*(readparam(bLuk)/10); },{},{}
4595,Cenere_Card,Cenere Card,6,20,,10,,,,,,,,4,,,,,{ bonus bAspdRate,2*(readparam(bAgi)/10); },{},{}
4596,AntiqueBook_Card,Antique Book Card,6,20,,10,,,,,,,,4,,,,,{ bonus bMatk,5*(readparam(bInt)/10); },{},{}
4597,LichternB_Card,Lichtern Blue Card,6,20,,10,,,,,,,,769,,,,,{ bonus bMatk,10; bonus2 bMagicAtkEle,Ele_Water,(getrefine()>=9)?10:5; },{},{}
4598,LichternY_Card,Lichtern Green Card,6,20,,10,,,,,,,,769,,,,,{ bonus bMatk,10; bonus2 bMagicAtkEle,Ele_Ghost,(getrefine()>=9)?10:5; },{},{}
4599,LichternR_Card,Lichtern Red Card,6,20,,10,,,,,,,,769,,,,,{ bonus bMatk,10; bonus2 bMagicAtkEle,Ele_Fire,(getrefine()>=9)?10:5; },{},{}
4600,LichternG_Card,Lichtern Yellow Card,6,20,,10,,,,,,,,769,,,,,{ bonus bMatk,10; bonus2 bMagicAtkEle,Ele_Earth,(getrefine()>=9)?10:5; },{},{}
4601,Amdarais_Card,Amdarais Card,6,20,,10,,,,,,,,16,,,,,{ bonus2 bAddClass,Class_All,15; bonus bMatkRate,15; bonus2 bHPLossRate,666,4000; bonus2 bSPLossRate,66,4000; },{},{ heal -6666,-666; }
4602,AmdaraisH_Card,Realized Amdarais Card,6,20,,10,,,,,,,,16,,,,,{ bonus2 bAddClass,Class_All,20; bonus bMatkRate,20; bonus2 bHPLossRate,666,6000; bonus2 bSPLossRate,66,6000; },{},{ heal -6666,-666; }
4603,CorruptionRoot_Card,Corruption Root Card,6,20,,10,,,,,,,,2,,,,,{ bonus bBaseAtk,20; bonus5 bAutoSpell,"NPC_WIDESTONE",1,70,BF_WEAPON,0; bonus5 bAutoSpell,"NPC_WIDESLEEP",1,70,BF_WEAPON,0; bonus5 bAutoSpell,"NPC_WIDECURSE",1,70,BF_WEAPON,0; },{},{}
4604,CorruptionRootH_Card,Realized Corruption Root Card,6,20,,10,,,,,,,,2,,,,,{ bonus bBaseAtk,30; bonus5 bAutoSpell,"NPC_WIDESTONE",2,70,BF_WEAPON,0; bonus5 bAutoSpell,"NPC_WIDESLEEP",2,70,BF_WEAPON,0; bonus5 bAutoSpell,"NPC_WIDECURSE",2,70,BF_WEAPON,0; },{},{}
4605,UndeadKnightM_Card,Agony Of Royal Knight Card,6,20,,10,,,,,,,,16,,,,,{ bonus bMaxHPrate,-44; bonus bHPGainValue,200+10*getrefine(); },{},{}
4606,UndeadKnightF_Card,Grudge of Royal Knight Card,6,20,,10,,,,,,,,4,,,,,{ bonus bMaxSPrate,-44; bonus bSPGainValue,20+(getrefine()/2); },{},{ heal 0,-444; }
4607,FaithfulManager_Card,Faithful Manager Card,6,20,,10,,,,,,,,2,,,,,{ bonus bBaseAtk,5; bonus bMatk,5; if(getiteminfo(getequipid(EQI_HAND_R),11) == W_BOOK) { .@r = getrefine(); if(.@r>=10) { bonus bBaseAtk,20; bonus bMatk,20; } if(.@r>=14) { bonus bBaseAtk,20; bonus bMatk,20; } } },{},{}
4608,White_Knight_Card,White Knight Card,6,20,,10,,,,,,,,2,,,,,{ bonus bBaseAtk,15; bonus2 bAddSize,Size_Medium,20; bonus2 bAddSize,Size_Large,20; },{},{}
4609,Khalitzburg_Knight_Card,Khalitzburg Knight Card,6,20,,10,,,,,,,,32,,,,,{ bonus bDef,20; bonus2 bSubSize,Size_Medium,25; bonus2 bSubSize,Size_Large,25; },{},{}
4610,Sarah_Card,Sarah Card,6,10,,10,,,,,,,,16,,,,,{ bonus bAbsorbDmgMaxHP,100; },{},{}
4625,Time_Holder_Card,Time Holder Card,6,10,,10,,,,,,,,2,,,,,{ bonus bMatkRate,20; bonus bUseSPrate,10; },{},{}
4626,Big_Ben_Card,Big Ben Card,6,10,,10,,,,,,,,2,,,,,{ bonus2 bMagicAddRace,RC_Formless,5; bonus2 bMagicAddRace,RC_Demon,5; },{},{}
4627,Big_Bell_Card,Big Bell Card,6,10,,10,,,,,,,,2,,,,,{ bonus2 bAddRace,RC_Formless,10; bonus2 bAddRace,RC_Demon,10; },{},{}
4628,Neo_Punk_Card,Neo Punk Card,6,10,,10,,,,,0xFFFFFFFF,63,2,32,,,,,{ bonus2 bSubRace,RC_Formless,20; bonus2 bSubRace,RC_Demon,20; },{},{}
4629,Arc_Elder_Card,Arc Elder Card,6,10,,10,,,,,,,,4,,,,,{ bonus2 bSubEle,Ele_Neutral,15; bonus2 bMagicAtkEle,Ele_Earth,getrefine()*3; },{},{}
4630,Nightmare_Timer_Keeper_Card,Nightmare Timer Keeper Card,6,10,,10,,,,,,,,64,,,,,{ bonus3 bAutoSpell,"NPC_WIDECURSE",2,20; },{},{}
4631,Owl_Viscount_Card,Owl Viscount Card,6,10,,10,,,,,,,,136,,,,,{ bonus bAspdRate,3; },{},{}
4632,Owl_Marquees_Card,Owl Marquees Card,6,10,,10,,,,,,,,136,,,,,{ bonus5 bAutoSpell,"SA_VIOLENTGALE",(getskilllv("SA_VIOLENTGALE")==5?5:1),1,BF_WEAPON,0; },{},{}
4633,Enhanced_Archer_Skeleton_Card,Enhanced Archer Skeleton Card,6,20,,10,,,,,,,,2,,,,,{ bonus bLongAtkRate,(BaseLevel>=100?12:10); },{},{}
4634,Enhanced_Soldier_Skeleton_Card,Enhanced Soldier Skeleton Card,6,20,,10,,,,,,,,2,,,,,{ if (BaseLevel<100) { bonus bCritical,9; } else { bonus bCritical,10; bonus bCritAtkRate,5; } },{},{}
4635,Enhanced_Amdarais_Card,Enhanced Amdarais Card,6,20,,10,,,,,,,,16,,,,,{ .@r = getrefine(); bonus bDef,(.@r*10); bonus bFlee,(.@r*-2); if (BaseLevel>=100) bonus bMaxHP,500; },{},{}
4636,Bijou_Card,Bijou Card,6,20,,10,,,,,,,,32,,,,,{ bonus2 bResEff,Eff_Freeze,10000; bonus2 bAddClass,Class_All,10; bonus bMatkRate,10; },{},{}
4637,Immortal_Corps_Card,Immortal Corps Card,6,20,,10,,,,,,,,4,,,,,{ bonus bHPGainValue,50; bonus bSPGainValue,5; bonus bNoRegen,1; bonus bNoRegen,2; },{},{ heal -1000,-100; }
4638,Watcher_Card,Watcher Card,6,20,,10,,,,,,,,16,,,,,{ bonus bBaseAtk,30; bonus bSPDrainValue,-5; },{},{}
4639,Taffy_Card,Taffy Card,6,20,,10,,,,,,,,136,,,,,{ bonus2 bAddClass,Class_All,1; },{},{}
4640,Frozen_Wolf_Card,Frozen Wolf Card,6,20,,10,,,,,,,,136,,,,,{ bonus bMatkRate,1; },{},{}
4641,Zombie_Guard_Card,Zombie Guard Card,6,20,,10,,,,,,,,32,,,,,{ bonus bNoRegen,2; bonus bSPDrainValue,1; },{},{}
4642,Min_Toad_Card,Infinite Toad Card,6,20,,10,,,,,,,,64,,,,,{ .@r = getrefine(); if(.@r>6){ .@b+=2; if(.@r>8).@b+=3; } bonus bFlee2,2+.@b; },{},{}
4643,Min_Vagabond_Wolf_Card,Infinite Vagabond Wolf Card,6,20,,10,,,,,,,,64,,,,,{ .@r = getrefine(); if(.@r>6){ .@b+=10; if(.@r>8).@b+=15; } bonus bAtk,10+.@b; },{},{}
4644,Min_Vocal_Card,Infinite Vocal Card,6,20,,10,,,,,,,,64,,,,,{ .@r = getrefine(); if(.@r>6){ .@b+=10; if(.@r>8) .@b+=15; } bonus bMdef,5+.@b; },{},{}
4645,Min_Eclipse_Card,Infinite Eclipse Card,6,20,,10,,,,,,,,64,,,,,{ .@r = getrefine(); if(.@r>6){ .@b+=300; if(.@r>8).@b+=400; } bonus bMaxHP,300+.@b; },{},{}
4646,Min_Chimera_Card,Infinite Chimera Card,6,20,,10,,,,,,,,4,,,,,{ bonus bMaxHPrate,8; bonus bMaxSPrate,4; },{},{}
4647,Min_Osiris_Card,Infinite Osiris Card,6,20,,10,,,,,,,,136,,,,,{ bonus bHPGainValue,300; },{},{}
4648,Min_Eddga_Card,Infinite Eddga Card,6,20,,10,,,,,,,,64,,,,,{ bonus4 bAutoSpellWhenHit,"SM_PROVOKE",10,500,1; },{},{}
4649,Min_Phreeoni_Card,Infinite Phreeoni Card,6,20,,10,,,,,,,,2,,,,,{ bonus bCritical,100; },{},{}
4650,Min_Orc_Hero_Card,Infinite Orc Hero Card,6,20,,10,,,,,,,,769,,,,,{ bonus bVit,3; bonus3 bAddEffWhenHit,Eff_Stun,10000,ATF_MAGIC; },{},{}
4651,Min_Tao_Gunka_Card,Infinite Tao Gunka Card,6,20,,10,,,,,,,,16,,,,,{ bonus bMaxHP,10000; bonus bAgi,-10; },{},{}
4652,N_Amon_Ra_Card,Nightmare Amon Ra Card,6,20,,10,,,,,,,,16,,,,,{ bonus2 bMagicAddRace,RC_Demon,50; bonus2 bMagicAddRace,RC_Undead,50; bonus2 bMagicAddEle,Ele_Dark,50; bonus2 bMagicAddEle,Ele_Undead,50; },{},{}
4653,N_Arclouse_Card,Nightmare Arclouse Card,6,20,,10,,,,,,,,32,,,,,{ bonus2 bSubRace,RC_Brute,20; bonus2 bSubRace,RC_Undead,20; },{},{}
4654,N_Mimic_Card,Nightmare Mimic Card,6,20,,10,,,,,,,,2,,,,,{ bonus2 bMagicAddRace,RC_Brute,5; bonus2 bMagicAddRace,RC_Undead,5; },{},{}
4655,N_Minorous_Card,Nightmare Minorous Card,6,20,,10,,,,,,,,2,,,,,{ bonus2 bAddRace,RC_Brute,10; bonus2 bAddRace,RC_Undead,10; },{},{}
4656,N_Mummy_Card,Nightmare Mummy Card,6,20,,10,,,,,,,,64,,,,,{ /* Unofficial chance */ bonus3 bAutoSpellWhenHit,"NPC_WIDESLEEP",2,10; },{},{}
4657,N_Ancient_Mummy_Card,Nightmare Ancient Mummy Card,6,20,,10,,,,,,,,4,,,,,{ bonus2 bSubEle,Ele_Neutral,15; bonus2 bMagicAtkEle,Ele_Fire,getrefine()*3; },{},{}
4658,N_Verit_Card,Nightmare Verit Card,6,20,,10,,,,,,,,64,,,,,{ bonus2 bMagicAddClass,Class_All,5; if(getrefine()>6) { bonus2 bMagicAddClass,Class_All,3; } if(getrefine()>8) { bonus2 bMagicAddClass,Class_All,2; } },{},{}
4659,Eggring_Card,Eggring Card,6,20,,10,,,,,,,,16,,,,,{ bonus bLuk,2; bonus bMaxHP,50; },{},{}
4660,Scout_Basilisk_Card,Scout Basilisk Card,6,20,,10,,,,,,,,32,,,,,{ bonus2 bSubSize,Size_Small,5; bonus2 bSubSize,Size_Medium,5; },{},{}
4661,Charge_Basilisk_Card,Charge Basilisk Card,6,20,,10,,,,,,,,32,,,,,{ bonus2 bSubSize,Size_Medium,20; bonus2 bSubSize,Size_Large,20; bonus2 bSubSize,Size_Small,-15; },{},{}
4662,Big_Eggring_Card,Big Eggring Card,6,20,,10,,,,,,,,4,,,,,{ bonus bAtk,25-5*min(readParam(bStr)/10,5); bonus bMatk,25-5*min(readParam(bInt)/10,5); bonus bAspdRate,10-2*min(readParam(bAgi)/10,5); bonus bMaxHP,1000-200*min(readParam(bVit)/10,5); bonus bLongAtkRate,5-1*min(readParam(bDex)/10,5); bonus bCritAtkRate,10-2*min(readParam(bLuk)/10,5); },{},{}
4663,Leaf_Lunatic_Card,Leaf Lunatic Card,6,20,,10,,,,,,,,64,,,,,{ bonus bMaxSP,5; },{},{}
4664,Grass_Fabre_Card,Grass Fabre Card,6,20,,10,,,,,,,,16,,,,,{ bonus bLuk,1; bonus bMaxHP,100; },{},{}
4665,Wild_Hornet_Card,Wild Hornet Card,6,20,,10,,,,,,,,2,,,,,{ bonus bAtk,5; },{},{}
4666,Sweet_Roda_Frog_Card,Sweet Roda Frog Card,6,20,,10,,,,,,,,16,,,,,{ bonus bMaxSP,10; bonus bMaxHP,300; },{},{}
4667,Hunter_Wolf_Card,Hunter Wolf Card,6,20,,10,,,,,,,,64,,,,,{ bonus bMaxSP,30; },{},{}
4668,Trance_Spore_Card,Trance Spore Card,6,20,,10,,,,,,,,769,,,,,{ bonus bVit,1; bonus bInt,1; },{},{}
4669,Jungle_Mandragora_Card,Jungle Mandragora Card,6,20,,10,,,,,,,,2,,,,,{ .@r = getrefine(); bonus2 bAddEle,Ele_Wind,((.@r>=9)?7:((.@r>=7)?5:3)); },{},{}
4670,Fruit_Pom_Spider_Card,Fruit Pom Spider Card,6,20,,10,,,,,,,,2,,,,,{ .@r = getrefine(); bonus2 bAddEle,Ele_Fire,((.@r>=9)?7:((.@r>=7)?5:3)); },{},{}
4671,V_Celia_Card,Sorcerer Celia Card,6,20,,10,,,,,,,,4,,,,,{ if(eaclass()&EAJL_THIRD && BaseJob == Job_Sage){ bonus bMaxHPrate,10; bonus bMatkRate,10; } if(BaseLevel>174) bonus bAllStats,10; if(getrefine()>9) bonus bAllStats,10; },{},{}
4672,V_Chen_Card,Sura Chen Card,6,20,,10,,,,,,,,4,,,,,{ if(eaclass()&EAJL_THIRD && BaseJob == Job_Monk){ bonus bMaxHPrate,10; bonus2 bAddClass,Class_All,10; } if(BaseLevel>174) bonus bAllStats,10; if(getrefine()>9) bonus bAllStats,10; },{},{}
4673,V_Alphoccio_Card,Minstel Alphoccio Card,6,20,,10,,,,,,,,4,,,,,{ if(eaclass()&EAJL_THIRD && BaseJob == Job_Bard){ bonus bMaxHPrate,15; bonus bMaxSPrate,10; } if(BaseLevel>174) bonus bAllStats,10; if(getrefine()>9) bonus bAllStats,10; },{},{}
4674,V_Eremes_Card,Guillotine Cross Eremes Card,6,20,,10,,,,,,,,4,,,,,{ if(eaclass()&EAJL_THIRD && BaseJob == Job_Assassin){ bonus bFlee2,10; bonus2 bAddClass,Class_All,15; } if(BaseLevel>174) bonus bAllStats,10; if(getrefine()>9) bonus bAllStats,10; },{},{}
4675,V_Magaleta_Card,Arch Bishop Magaleta Card,6,20,,10,,,,,,,,4,,,,,{ if(eaclass()&EAJL_THIRD && BaseJob == Job_Priest){ bonus bMaxHPrate,10; bonus bHealPower,10; } if(BaseLevel>174) bonus bAllStats,10; if(getrefine()>9) bonus bAllStats,10; },{},{}
4676,V_Shecil_Card,Ranger Cecil Card,6,20,,10,,,,,,,,4,,,,,{ if(eaclass()&EAJL_THIRD && BaseJob == Job_Hunter){ bonus bCritical,20; bonus bLongAtkRate,15; } if(BaseLevel>174) bonus bAllStats,10; if(getrefine()>9) bonus bAllStats,10; },{},{}
4677,V_Howard_Card,Mechanic Howard Card,6,20,,10,,,,,,,,4,,,,,{ if(eaclass()&EAJL_THIRD && BaseJob == Job_Blacksmith){ bonus bHit,20; bonus2 bAddClass,Class_All,15; } if(BaseLevel>174) bonus bAllStats,10; if(getrefine()>9) bonus bAllStats,10; },{},{}
4678,V_Katrinn_Card,Warlock Kathryne Card,6,20,,10,,,,,,,,4,,,,,{ if(eaclass()&EAJL_THIRD && BaseJob == Job_Wizard){ bonus bMdef,80; bonus bMatkRate,15; } if(BaseLevel>174) bonus bAllStats,10; if(getrefine()>9) bonus bAllStats,10; },{},{}
4679,V_Seyren_Card,Rune Knight Seyren Card,6,20,,10,,,,,,,,4,,,,,{ if(eaclass()&EAJL_THIRD && BaseJob == Job_Knight){ bonus bAspd,2; bonus2 bAddClass,Class_All,15; } if(BaseLevel>174) bonus bAllStats,10; if(getrefine()>9) bonus bAllStats,10; },{},{}
4680,V_Randel_Card,Royal Guard Randel Card,6,20,,10,,,,,,,,4,,,,,{ if(eaclass()&EAJL_THIRD && BaseJob == Job_Crusader){ bonus bDef,350; bonus2 bAddClass,Class_All,10; } if(BaseLevel>174) bonus bAllStats,10; if(getrefine()>9) bonus bAllStats,10; },{},{}
4681,V_Flamel_Card,Genetic Flamel Card,6,20,,10,,,,,,,,4,,,,,{ if(eaclass()&EAJL_THIRD && BaseJob == Job_Alchemist){ bonus bFlee,20; bonus2 bAddClass,Class_All,15; } if(BaseLevel>174) bonus bAllStats,10; if(getrefine()>9) bonus bAllStats,10; },{},{}
4682,V_Gertie_Card,Shadow Chaser Gertie Card,6,20,,10,,,,,,,,4,,,,,{ if(eaclass()&EAJL_THIRD && BaseJob == Job_Rogue){ bonus2 bAddClass,Class_All,5; bonus bMatkRate,15; } if(BaseLevel>174) bonus bAllStats,10; if(getrefine()>9) bonus bAllStats,10; },{},{}
4683,V_Trentini_Card,Wanderer Trentini Card,6,20,,10,,,,,,,,4,,,,,{ if(eaclass()&EAJL_THIRD && BaseJob == Job_Dancer){ bonus bMaxHPrate,10; bonus bMaxSPrate,15; } if(BaseLevel>174) bonus bAllStats,10; if(getrefine()>9) bonus bAllStats,10; },{},{}
4684,V_B_Eremes_Card,True Eremes Guile Card,6,20,,10,,,,,,,,2,,,,,{ if(getrefine() > 9) .@b+=20; if(getequipweaponlv(-1) == 4) .@b += 20; bonus2 bSkillAtk,"GC_CROSSIMPACT",20+.@b; },{},{}
4685,V_B_Magaleta_Card,True Margaretha Sorin Card,6,20,,10,,,,,,,,2,,,,,{ if(getrefine() > 9) .@b+=20; if(getequipweaponlv(-1) == 4) .@b += 20; bonus2 bSkillAtk,"AB_ADORAMUS",20+.@b; },{},{}
4686,V_B_Katrinn_Card,True Kathryne Keyron Card,6,20,,10,,,,,,,,2,,,,,{ if(getrefine() > 9) .@b+=20; if(getequipweaponlv(-1) == 4) .@b += 20; bonus2 bSkillAtk,"WL_CRIMSONROCK",20+.@b; },{},{}
4687,V_B_Shecil_Card,True Cecil Damon Card,6,20,,10,,,,,,,,2,,,,,{ if(getrefine() > 9) .@b+=20; if(getequipweaponlv(-1) == 4) .@b += 20; bonus2 bSkillAtk,"RA_CLUSTERBOMB",20+.@b; },{},{}
4688,V_B_Harword_Card,True Howard Alt-Eisen Card,6,20,,10,,,,,,,,2,,,,,{ if(getrefine() > 9) .@b+=20; if(getequipweaponlv(-1) == 4) .@b += 20; bonus2 bSkillAtk,"NC_AXETORNADO",20+.@b; },{},{}
4689,V_B_Seyren_Card,True Seyren Windsor Card,6,20,,10,,,,,,,,2,,,,,{ if(getrefine() > 9) .@b+=20; if(getequipweaponlv(-1) == 4) .@b += 20; bonus2 bSkillAtk,"RK_IGNITIONBREAK",20+.@b; },{},{}
4690,V_B_Randel_Card,True Randel Lawrence Card,6,20,,10,,,,,,,,2,,,,,{ if(getrefine() > 9) .@b+=20; if(getequipweaponlv(-1) == 4) .@b += 20; bonus2 bSkillAtk,"LG_EARTHDRIVE",20+.@b; },{},{}
4691,V_B_Flamel_Card,True Flamel Emure Card,6,20,,10,,,,,,,,2,,,,,{ if(getrefine() > 9) .@b+=20; if(getequipweaponlv(-1) == 4) .@b += 20; bonus2 bSkillAtk,"GN_CART_TORNADO",20+.@b; },{},{}
4692,V_B_Celia_Card,True Celia Alde Card,6,20,,10,,,,,,,,2,,,,,{ if(getrefine() > 9) .@b+=20; if(getequipweaponlv(-1) == 4) .@b += 20; bonus2 bSkillAtk,"SO_VARETYR_SPEAR",20+.@b; },{},{}
4693,V_B_Chen_Card,True Chen Liu Card,6,20,,10,,,,,,,,2,,,,,{ if(getrefine() > 9) .@b+=20; if(getequipweaponlv(-1) == 4) .@b += 20; bonus2 bSkillAtk,"SR_RAMPAGEBLASTER",20+.@b; },{},{}
4694,V_B_Gertie_Card,True Gertie Card,6,20,,10,,,,,,,,2,,,,,{ if(getrefine() > 9) .@b+=20; if(getequipweaponlv(-1) == 4) .@b += 20; bonus2 bSkillAtk,"SC_FEINTBOMB",20+.@b; },{},{}
4695,V_B_Trentini_Card,True Trentini Card,6,20,,10,,,,,,,,2,,,,,{ if(getrefine() > 9) .@b+=20; if(getequipweaponlv(-1) == 4) .@b += 20; bonus2 bSkillAtk,"WM_SEVERE_RAINSTORM",20+.@b; },{},{}
4696,V_B_Alphoccio_Card,True Alphoccio Card,6,20,,10,,,,,,,,2,,,,,{ if(getrefine() > 9) .@b+=20; if(getequipweaponlv(-1) == 4) .@b += 20; bonus2 bSkillAtk,"WM_REVERBERATION",20+.@b; },{},{}
4697,Charleston3_Card,Charleston3 Card,6,20,,10,,,,,0xFFFFFFFF,63,2,2,,,,,{ bonus bMaxSP,-300; bonus bBreakArmorRate,1500; /* Custom rate [Secret] */ },{},{}
4698,Step_Card,Step Card,6,20,,10,,,,,0xFFFFFFFF,63,2,2,,,,,{ bonus2 bSkillAtk,"NC_AXEBOOMERANG",30+((getrefine() >= 10)*30); },{},{}
4699,Rock_Step_Card,Rock Step Card,6,20,,10,,,,,0xFFFFFFFF,63,2,2,,,,,{ bonus2 bSkillAtk,"NC_ARMSCANNON",20+((getrefine()>=10)*20); },{},{}
