[
    {
        "index":0,
        "name": "system Admin",
        "username": "admin",
        "password": "pwa1234",
        "type": "admin"
    },{
        "index":1,
        "name": "บัณฑิต คุ้มสวัสดิ์",
        "username": "bandid12",
        "password": "1234",
        "type": "user"
    }, {
        "index":2,
        "name": "ใจดี สุดสวย",
        "username": "somjai",
        "password": "somjai1234",
        "type": "user"
    }
]
