[
    {
        "name": "BP1_RWP_1",
        "type": "RWP",
        "code": "BP1",
        "count": 1,
        "sql_map": ["BP1_RWP"],
        "data": []
    },
    {
        "name": "BP1_DPB_1",
        "type": "DPB",
        "code": "BP1",
        "count": 1,
        "sql_map": ["BP1_DPB","BP1_DPB_POWER","BP1_DPB_WQ"],
        "data": [
            {
                "tag": "FLOW",
                "map": "FLOW-5",
                "c": 1,
                "topic": "SCADA/REG1/5531011/BP1/DPB/1/FLOW",
                "dup": false
            },
            {
                "tag": "FLOW_TOTAL",
                "map": "FLOW_TOTAL-2",
                "c": 1,
                "topic": "SCADA/REG1/5531011/BP1/DPB/1/FLOW_TOTAL",
                "dup": false
            },
            {
                "tag": "FLOW_IN_TOTAL",
                "map": "FLOW_TOTAL-5",
                "c": 1,
                "topic": "SCADA/REG1/5531011/BP1/DPB/1/FLOW_IN_TOTAL",
                "dup": false
            },
            {
                "tag": "P1",
                "map": "PT-1",
                "c": 1,
                "topic": "SCADA/REG1/5531011/BP1/DPB/1/P1",
                "dup": false
            },
            {
                "tag": "TURBID",
                "map": "TURBIT-2",
                "c": 2,
                "topic": "SCADA/REG1/5531011/BP1/DPB/1/TURBID",
                "dup": false
            }
        ]
    },
    {
        "name": "BP1_DPB_2",
        "type": "DPB",
        "code": "BP1",
        "count": 2,
        "sql_map": [],
        "data": []
    }
]