[
    {
        "st_code": "BP1",
        "st_desc": "สถานีจ่ายน้ำทดสอบ",
        "st_count": {
            "SEDIMENT": 0,
            "FILTATION": 0,
            "CHEMICAL": 0,
            "CLEARWELL": 0,
            "ELEVATE": 0,
            "RWP": 0,
            "HSP": 0,
            "DPB": 0,
            "BOOSTER": 0
        }
    }
]